EESchema Schematic File Version 4
EELAYER 30 0
EELAYER END
$Descr A4 11693 8268
encoding utf-8
Sheet 1 1
Title ""
Date ""
Rev ""
Comp ""
Comment1 ""
Comment2 ""
Comment3 ""
Comment4 ""
$EndDescr
$Comp
L GRF-2k5-4G4-rescue:Arduino_Nano_v3.x-MCU_Module A20
U 1 1 5C783688
P 6800 4800
F 0 "A20" H 6900 4300 50  0000 C CNN
F 1 "Arduino_Nano_v3.x" V 6750 4700 50  0000 C CNN
F 2 "Module:Arduino_Nano" H 6950 3850 50  0001 L CNN
F 3 "http://www.mouser.com/pdfdocs/Gravitech_Arduino_Nano3_0.pdf" H 6800 3800 50  0001 C CNN
	1    6800 4800
	1    0    0    -1  
$EndComp
$Comp
L GRF-2k5-4G4-rescue:TFT_1.8inch-TFT_1.8inch U40
U 1 1 5C789617
P 3300 5050
F 0 "U40" H 3319 5625 50  0000 C CNN
F 1 "TFT_1.8inch" H 3319 5534 50  0000 C CNN
F 2 "Connector_PinHeader_2.54mm:PinHeader_1x08_P2.54mm_Vertical" H 3450 4600 50  0001 C CNN
F 3 "" H 3450 4600 50  0001 C CNN
	1    3300 5050
	-1   0    0    -1  
$EndComp
$Comp
L GRF-2k5-4G4-rescue:ADF4350_EVAL-ADF4350_EVAL U30
U 1 1 5C789737
P 9550 1350
F 0 "U30" H 9525 1815 50  0000 C CNN
F 1 "ADF4350_EVAL" H 9525 1724 50  0000 C CNN
F 2 "Connector_PinHeader_2.54mm:PinHeader_2x05_P2.54mm_Vertical" H 9550 1700 50  0001 C CNN
F 3 "" H 9550 1700 50  0001 C CNN
	1    9550 1350
	1    0    0    -1  
$EndComp
$Comp
L Connector_Generic:Conn_01x02 J11
U 1 1 5C789AC3
P 1150 2650
F 0 "J11" H 1070 2867 50  0000 C CNN
F 1 "Alim_8V" H 1070 2776 50  0000 C CNN
F 2 "Connector_Molex:Molex_KK-254_AE-6410-02A_1x02_P2.54mm_Vertical" H 1150 2650 50  0001 C CNN
F 3 "~" H 1150 2650 50  0001 C CNN
	1    1150 2650
	-1   0    0    -1  
$EndComp
$Comp
L power:GND #PWR0101
U 1 1 5C789B8F
P 1500 2750
F 0 "#PWR0101" H 1500 2500 50  0001 C CNN
F 1 "GND" H 1505 2577 50  0000 C CNN
F 2 "" H 1500 2750 50  0001 C CNN
F 3 "" H 1500 2750 50  0001 C CNN
	1    1500 2750
	1    0    0    -1  
$EndComp
$Comp
L Regulator_Linear:AMS1117-5.0 U11
U 1 1 5C789D18
P 3250 1700
F 0 "U11" H 3250 1942 50  0000 C CNN
F 1 "AMS1117-5.0" H 3250 1851 50  0000 C CNN
F 2 "Package_TO_SOT_SMD:SOT-223-3_TabPin2" H 3250 1900 50  0001 C CNN
F 3 "http://www.advanced-monolithic.com/pdf/ds1117.pdf" H 3350 1450 50  0001 C CNN
	1    3250 1700
	1    0    0    -1  
$EndComp
$Comp
L power:GND #PWR0102
U 1 1 5C789D52
P 3250 2000
F 0 "#PWR0102" H 3250 1750 50  0001 C CNN
F 1 "GND" H 3255 1827 50  0000 C CNN
F 2 "" H 3250 2000 50  0001 C CNN
F 3 "" H 3250 2000 50  0001 C CNN
	1    3250 2000
	1    0    0    -1  
$EndComp
$Comp
L Regulator_Linear:AMS1117-3.3 U12
U 1 1 5C789DD1
P 4450 1700
F 0 "U12" H 4450 1942 50  0000 C CNN
F 1 "AMS1117-3.3" H 4450 1851 50  0000 C CNN
F 2 "Package_TO_SOT_SMD:SOT-223-3_TabPin2" H 4450 1900 50  0001 C CNN
F 3 "http://www.advanced-monolithic.com/pdf/ds1117.pdf" H 4550 1450 50  0001 C CNN
	1    4450 1700
	1    0    0    -1  
$EndComp
Wire Wire Line
	4750 1700 4900 1700
$Comp
L power:GND #PWR0103
U 1 1 5C789E94
P 4450 2000
F 0 "#PWR0103" H 4450 1750 50  0001 C CNN
F 1 "GND" H 4455 1827 50  0000 C CNN
F 2 "" H 4450 2000 50  0001 C CNN
F 3 "" H 4450 2000 50  0001 C CNN
	1    4450 2000
	1    0    0    -1  
$EndComp
$Comp
L power:+5V #PWR0104
U 1 1 5C789F2D
P 3800 1650
F 0 "#PWR0104" H 3800 1500 50  0001 C CNN
F 1 "+5V" H 3815 1823 50  0000 C CNN
F 2 "" H 3800 1650 50  0001 C CNN
F 3 "" H 3800 1650 50  0001 C CNN
	1    3800 1650
	1    0    0    -1  
$EndComp
Connection ~ 3800 1700
Wire Wire Line
	3800 1700 4050 1700
$Comp
L power:+3V3 #PWR0105
U 1 1 5C789FA5
P 5150 1700
F 0 "#PWR0105" H 5150 1550 50  0001 C CNN
F 1 "+3V3" H 5165 1873 50  0000 C CNN
F 2 "" H 5150 1700 50  0001 C CNN
F 3 "" H 5150 1700 50  0001 C CNN
	1    5150 1700
	1    0    0    -1  
$EndComp
$Comp
L Device:C C10
U 1 1 5C789FF1
P 3750 1900
F 0 "C10" H 3865 1946 50  0000 L CNN
F 1 "C" H 3865 1855 50  0000 L CNN
F 2 "Capacitor_SMD:C_0603_1608Metric_Pad1.05x0.95mm_HandSolder" H 3788 1750 50  0001 C CNN
F 3 "~" H 3750 1900 50  0001 C CNN
	1    3750 1900
	1    0    0    -1  
$EndComp
$Comp
L Device:C C11
U 1 1 5C78A048
P 4900 1900
F 0 "C11" H 5015 1946 50  0000 L CNN
F 1 "C" H 5015 1855 50  0000 L CNN
F 2 "Capacitor_SMD:C_0603_1608Metric_Pad1.05x0.95mm_HandSolder" H 4938 1750 50  0001 C CNN
F 3 "~" H 4900 1900 50  0001 C CNN
	1    4900 1900
	1    0    0    -1  
$EndComp
Connection ~ 4900 1700
Wire Wire Line
	4900 1700 5150 1700
$Comp
L power:GND #PWR0106
U 1 1 5C78A088
P 4900 2050
F 0 "#PWR0106" H 4900 1800 50  0001 C CNN
F 1 "GND" H 4905 1877 50  0000 C CNN
F 2 "" H 4900 2050 50  0001 C CNN
F 3 "" H 4900 2050 50  0001 C CNN
	1    4900 2050
	1    0    0    -1  
$EndComp
$Comp
L power:GND #PWR0107
U 1 1 5C78A0A5
P 3750 2050
F 0 "#PWR0107" H 3750 1800 50  0001 C CNN
F 1 "GND" H 3755 1877 50  0000 C CNN
F 2 "" H 3750 2050 50  0001 C CNN
F 3 "" H 3750 2050 50  0001 C CNN
	1    3750 2050
	1    0    0    -1  
$EndComp
Wire Wire Line
	3800 1700 3800 1650
Wire Wire Line
	3550 1700 3650 1700
Wire Wire Line
	3750 1750 3750 1700
Connection ~ 3750 1700
Wire Wire Line
	3750 1700 3800 1700
Wire Wire Line
	4900 1750 4900 1700
$Comp
L Connector_Generic:Conn_01x02 J12
U 1 1 5C78A431
P 2000 2650
F 0 "J12" H 1920 2867 50  0000 C CNN
F 1 "Alim_5V" H 1920 2776 50  0000 C CNN
F 2 "Connector_Molex:Molex_KK-254_AE-6410-02A_1x02_P2.54mm_Vertical" H 2000 2650 50  0001 C CNN
F 3 "~" H 2000 2650 50  0001 C CNN
	1    2000 2650
	-1   0    0    -1  
$EndComp
$Comp
L power:+5V #PWR0108
U 1 1 5C78A4D0
P 2500 2650
F 0 "#PWR0108" H 2500 2500 50  0001 C CNN
F 1 "+5V" H 2515 2823 50  0000 C CNN
F 2 "" H 2500 2650 50  0001 C CNN
F 3 "" H 2500 2650 50  0001 C CNN
	1    2500 2650
	1    0    0    -1  
$EndComp
$Comp
L power:GND #PWR0109
U 1 1 5C78A4EF
P 2500 2750
F 0 "#PWR0109" H 2500 2500 50  0001 C CNN
F 1 "GND" H 2505 2577 50  0000 C CNN
F 2 "" H 2500 2750 50  0001 C CNN
F 3 "" H 2500 2750 50  0001 C CNN
	1    2500 2750
	1    0    0    -1  
$EndComp
Wire Wire Line
	2500 2650 2200 2650
Wire Wire Line
	2200 2750 2500 2750
$Comp
L power:+8V #PWR0110
U 1 1 5C78A901
P 2700 1700
F 0 "#PWR0110" H 2700 1550 50  0001 C CNN
F 1 "+8V" H 2715 1873 50  0000 C CNN
F 2 "" H 2700 1700 50  0001 C CNN
F 3 "" H 2700 1700 50  0001 C CNN
	1    2700 1700
	1    0    0    -1  
$EndComp
Connection ~ 2700 1700
Wire Wire Line
	2700 1700 2850 1700
Wire Wire Line
	1350 2750 1500 2750
$Comp
L Connector_Generic:Conn_01x02 J10
U 1 1 5C78AF54
P 1150 1700
F 0 "J10" H 1070 1917 50  0000 C CNN
F 1 "Alim_general" H 1070 1826 50  0000 C CNN
F 2 "Connector_Molex:Molex_KK-254_AE-6410-02A_1x02_P2.54mm_Vertical" H 1150 1700 50  0001 C CNN
F 3 "~" H 1150 1700 50  0001 C CNN
	1    1150 1700
	-1   0    0    -1  
$EndComp
$Comp
L power:GND #PWR0111
U 1 1 5C78AF5A
P 1500 1800
F 0 "#PWR0111" H 1500 1550 50  0001 C CNN
F 1 "GND" H 1505 1627 50  0000 C CNN
F 2 "" H 1500 1800 50  0001 C CNN
F 3 "" H 1500 1800 50  0001 C CNN
	1    1500 1800
	1    0    0    -1  
$EndComp
Wire Wire Line
	1350 1800 1500 1800
$Comp
L power:+8V #PWR0112
U 1 1 5C78B313
P 1500 2650
F 0 "#PWR0112" H 1500 2500 50  0001 C CNN
F 1 "+8V" H 1515 2823 50  0000 C CNN
F 2 "" H 1500 2650 50  0001 C CNN
F 3 "" H 1500 2650 50  0001 C CNN
	1    1500 2650
	1    0    0    -1  
$EndComp
Wire Wire Line
	1350 2650 1500 2650
$Comp
L Connector_Generic:Conn_01x02 J70
U 1 1 5C78B8A0
P 10150 4200
F 0 "J70" H 10070 4417 50  0000 C CNN
F 1 "Alim_Ampli" H 10070 4326 50  0000 C CNN
F 2 "Connector_Molex:Molex_KK-254_AE-6410-02A_1x02_P2.54mm_Vertical" H 10150 4200 50  0001 C CNN
F 3 "~" H 10150 4200 50  0001 C CNN
	1    10150 4200
	-1   0    0    -1  
$EndComp
$Comp
L power:GND #PWR0113
U 1 1 5C78B8A6
P 10500 4300
F 0 "#PWR0113" H 10500 4050 50  0001 C CNN
F 1 "GND" H 10505 4127 50  0000 C CNN
F 2 "" H 10500 4300 50  0001 C CNN
F 3 "" H 10500 4300 50  0001 C CNN
	1    10500 4300
	1    0    0    -1  
$EndComp
Wire Wire Line
	10350 4300 10500 4300
Wire Wire Line
	10350 4200 10500 4200
$Comp
L power:+5V #PWR0114
U 1 1 5C78BAED
P 10500 4200
F 0 "#PWR0114" H 10500 4050 50  0001 C CNN
F 1 "+5V" H 10515 4373 50  0000 C CNN
F 2 "" H 10500 4200 50  0001 C CNN
F 3 "" H 10500 4200 50  0001 C CNN
	1    10500 4200
	1    0    0    -1  
$EndComp
$Comp
L GRF-2k5-4G4-rescue:PE4302-PE4302 U60
U 1 1 5C78C11A
P 8650 4800
F 0 "U60" H 8877 4651 50  0000 L CNN
F 1 "PE4302" H 8877 4560 50  0000 L CNN
F 2 "Connector_PinHeader_2.54mm:PinHeader_1x07_P2.54mm_Vertical" H 8800 4800 50  0001 C CNN
F 3 "" H 8800 4800 50  0001 C CNN
	1    8650 4800
	1    0    0    -1  
$EndComp
$Comp
L Connector_Generic:Conn_01x02 J60
U 1 1 5C78C3BF
P 8500 4150
F 0 "J60" H 8420 4367 50  0000 C CNN
F 1 "Alim_PE4302" H 8420 4276 50  0000 C CNN
F 2 "Connector_Molex:Molex_KK-254_AE-6410-02A_1x02_P2.54mm_Vertical" H 8500 4150 50  0001 C CNN
F 3 "~" H 8500 4150 50  0001 C CNN
	1    8500 4150
	-1   0    0    -1  
$EndComp
$Comp
L power:GND #PWR0115
U 1 1 5C78C3C5
P 8850 4250
F 0 "#PWR0115" H 8850 4000 50  0001 C CNN
F 1 "GND" H 8855 4077 50  0000 C CNN
F 2 "" H 8850 4250 50  0001 C CNN
F 3 "" H 8850 4250 50  0001 C CNN
	1    8850 4250
	1    0    0    -1  
$EndComp
Wire Wire Line
	8700 4250 8850 4250
Wire Wire Line
	8700 4150 8850 4150
$Comp
L power:+3V3 #PWR0116
U 1 1 5C78C690
P 8850 4150
F 0 "#PWR0116" H 8850 4000 50  0001 C CNN
F 1 "+3V3" H 8865 4323 50  0000 C CNN
F 2 "" H 8850 4150 50  0001 C CNN
F 3 "" H 8850 4150 50  0001 C CNN
	1    8850 4150
	1    0    0    -1  
$EndComp
Wire Notes Line
	850  600  5450 600 
Wire Notes Line
	5450 600  5450 3050
Wire Notes Line
	5450 3050 850  3050
Wire Notes Line
	850  3050 850  600 
Text Notes 9750 4750 0    118  ~ 0
Amplificateur
Wire Notes Line
	11000 3900 11000 4800
Wire Notes Line
	9700 4800 9700 3900
$Comp
L power:+5V #PWR0117
U 1 1 5C78E0B3
P 7000 3200
F 0 "#PWR0117" H 7000 3050 50  0001 C CNN
F 1 "+5V" H 7015 3373 50  0000 C CNN
F 2 "" H 7000 3200 50  0001 C CNN
F 3 "" H 7000 3200 50  0001 C CNN
	1    7000 3200
	1    0    0    -1  
$EndComp
Wire Wire Line
	7300 4800 8500 4800
Wire Wire Line
	8500 4900 7300 4900
Wire Wire Line
	7300 5000 8500 5000
Wire Wire Line
	8500 5100 7300 5100
Wire Wire Line
	7300 5200 8500 5200
Wire Wire Line
	8500 5300 7300 5300
Wire Wire Line
	8500 4700 8300 4700
$Comp
L power:GND #PWR0118
U 1 1 5C78FAD8
P 8300 4700
F 0 "#PWR0118" H 8300 4450 50  0001 C CNN
F 1 "GND" H 8305 4527 50  0000 C CNN
F 2 "" H 8300 4700 50  0001 C CNN
F 3 "" H 8300 4700 50  0001 C CNN
	1    8300 4700
	-1   0    0    1   
$EndComp
$Comp
L Device:R R31
U 1 1 5C78FE05
P 7600 1700
F 0 "R31" H 7670 1746 50  0000 L CNN
F 1 "1k" H 7670 1655 50  0000 L CNN
F 2 "Resistor_SMD:R_0603_1608Metric_Pad1.05x0.95mm_HandSolder" V 7530 1700 50  0001 C CNN
F 3 "~" H 7600 1700 50  0001 C CNN
	1    7600 1700
	1    0    0    -1  
$EndComp
$Comp
L Device:R R33
U 1 1 5C78FEB6
P 8950 1700
F 0 "R33" H 9020 1746 50  0000 L CNN
F 1 "1k" H 9020 1655 50  0000 L CNN
F 2 "Resistor_SMD:R_0603_1608Metric_Pad1.05x0.95mm_HandSolder" V 8880 1700 50  0001 C CNN
F 3 "~" H 8950 1700 50  0001 C CNN
	1    8950 1700
	1    0    0    -1  
$EndComp
$Comp
L Device:R R35
U 1 1 5C78FEF0
P 10000 1850
F 0 "R35" H 10070 1896 50  0000 L CNN
F 1 "1k" H 10070 1805 50  0000 L CNN
F 2 "Resistor_SMD:R_0603_1608Metric_Pad1.05x0.95mm_HandSolder" V 9930 1850 50  0001 C CNN
F 3 "~" H 10000 1850 50  0001 C CNN
	1    10000 1850
	1    0    0    -1  
$EndComp
$Comp
L Device:R R32
U 1 1 5C78FF2C
P 8400 1450
F 0 "R32" V 8600 1450 50  0000 C CNN
F 1 "470R" V 8500 1450 50  0000 C CNN
F 2 "Resistor_SMD:R_0603_1608Metric_Pad1.05x0.95mm_HandSolder" V 8330 1450 50  0001 C CNN
F 3 "~" H 8400 1450 50  0001 C CNN
	1    8400 1450
	0    1    1    0   
$EndComp
$Comp
L Device:R R34
U 1 1 5C78FFD4
P 10350 1350
F 0 "R34" V 10557 1350 50  0000 C CNN
F 1 "470R" V 10466 1350 50  0000 C CNN
F 2 "Resistor_SMD:R_0603_1608Metric_Pad1.05x0.95mm_HandSolder" V 10280 1350 50  0001 C CNN
F 3 "~" H 10350 1350 50  0001 C CNN
	1    10350 1350
	0    -1   -1   0   
$EndComp
$Comp
L Device:R R30
U 1 1 5C790054
P 7400 1350
F 0 "R30" V 7193 1350 50  0000 C CNN
F 1 "470R" V 7284 1350 50  0000 C CNN
F 2 "Resistor_SMD:R_0603_1608Metric_Pad1.05x0.95mm_HandSolder" V 7330 1350 50  0001 C CNN
F 3 "~" H 7400 1350 50  0001 C CNN
	1    7400 1350
	0    1    1    0   
$EndComp
$Comp
L power:GND #PWR0119
U 1 1 5C791AC4
P 7600 1850
F 0 "#PWR0119" H 7600 1600 50  0001 C CNN
F 1 "GND" H 7605 1677 50  0000 C CNN
F 2 "" H 7600 1850 50  0001 C CNN
F 3 "" H 7600 1850 50  0001 C CNN
	1    7600 1850
	1    0    0    -1  
$EndComp
$Comp
L power:GND #PWR0120
U 1 1 5C791B22
P 8950 1850
F 0 "#PWR0120" H 8950 1600 50  0001 C CNN
F 1 "GND" H 8955 1677 50  0000 C CNN
F 2 "" H 8950 1850 50  0001 C CNN
F 3 "" H 8950 1850 50  0001 C CNN
	1    8950 1850
	1    0    0    -1  
$EndComp
$Comp
L power:GND #PWR0121
U 1 1 5C791B80
P 10000 2000
F 0 "#PWR0121" H 10000 1750 50  0001 C CNN
F 1 "GND" H 10005 1827 50  0000 C CNN
F 2 "" H 10000 2000 50  0001 C CNN
F 3 "" H 10000 2000 50  0001 C CNN
	1    10000 2000
	1    0    0    -1  
$EndComp
Wire Wire Line
	8150 1450 8250 1450
Text GLabel 8150 1450 0    50   Input ~ 0
SCL
Text GLabel 10650 1350 2    50   Input ~ 0
SDA
Wire Wire Line
	10650 1350 10500 1350
Wire Wire Line
	9850 1350 10000 1350
Wire Wire Line
	10000 1700 10000 1350
Connection ~ 10000 1350
Wire Wire Line
	10000 1350 10200 1350
Wire Wire Line
	8950 1550 8950 1450
Text GLabel 6050 5500 0    50   Input ~ 0
SCL
Wire Wire Line
	6050 5500 6300 5500
Text GLabel 6050 5300 0    50   Input ~ 0
SDA
Wire Wire Line
	6050 5300 6300 5300
Text GLabel 6000 4900 0    50   Input ~ 0
ADF_LE
Wire Wire Line
	6000 4900 6300 4900
Text GLabel 3600 5000 2    50   Input ~ 0
SDA
Text GLabel 3600 4900 2    50   Input ~ 0
SCL
Wire Wire Line
	6300 5000 5200 5000
Wire Wire Line
	5200 5000 5200 5200
Wire Wire Line
	5400 5300 5400 5200
Wire Wire Line
	5400 5200 6300 5200
Wire Wire Line
	3600 5000 3450 5000
Wire Wire Line
	3450 4900 3600 4900
Wire Wire Line
	3450 4700 3600 4700
Wire Wire Line
	3600 4700 3600 4600
Wire Wire Line
	3450 4800 3750 4800
$Comp
L power:+5V #PWR0122
U 1 1 5C7A2CC6
P 3750 4400
F 0 "#PWR0122" H 3750 4250 50  0001 C CNN
F 1 "+5V" H 3765 4573 50  0000 C CNN
F 2 "" H 3750 4400 50  0001 C CNN
F 3 "" H 3750 4400 50  0001 C CNN
	1    3750 4400
	1    0    0    -1  
$EndComp
$Comp
L power:GND #PWR0123
U 1 1 5C7A2CF9
P 3600 4400
F 0 "#PWR0123" H 3600 4150 50  0001 C CNN
F 1 "GND" H 3605 4227 50  0000 C CNN
F 2 "" H 3600 4400 50  0001 C CNN
F 3 "" H 3600 4400 50  0001 C CNN
	1    3600 4400
	-1   0    0    1   
$EndComp
$Comp
L power:GND #PWR0124
U 1 1 5C7A2D2C
P 6800 5800
F 0 "#PWR0124" H 6800 5550 50  0001 C CNN
F 1 "GND" H 6805 5627 50  0000 C CNN
F 2 "" H 6800 5800 50  0001 C CNN
F 3 "" H 6800 5800 50  0001 C CNN
	1    6800 5800
	1    0    0    -1  
$EndComp
$Comp
L power:GND #PWR0125
U 1 1 5C7A2D87
P 6900 5800
F 0 "#PWR0125" H 6900 5550 50  0001 C CNN
F 1 "GND" H 6905 5627 50  0000 C CNN
F 2 "" H 6900 5800 50  0001 C CNN
F 3 "" H 6900 5800 50  0001 C CNN
	1    6900 5800
	1    0    0    -1  
$EndComp
Text GLabel 7100 1350 0    50   Input ~ 0
ADF_LE
Wire Wire Line
	7600 1550 7600 1500
Connection ~ 7600 1350
Wire Wire Line
	7550 1350 7600 1350
Wire Wire Line
	9200 1450 8950 1450
Connection ~ 8950 1450
Wire Wire Line
	7600 1350 9200 1350
Wire Wire Line
	7100 1350 7200 1350
$Comp
L GRF-2k5-4G4-rescue:Encoder_rotatif-Encoder_rot U50
U 1 1 5C7B71A1
P 4800 4600
F 0 "U50" H 4800 4385 50  0000 C CNN
F 1 "Encoder_rotatif" H 4800 4476 50  0000 C CNN
F 2 "Connector_PinHeader_2.54mm:PinHeader_1x05_P2.54mm_Vertical" H 4800 4750 50  0001 C CNN
F 3 "" H 4800 4750 50  0001 C CNN
	1    4800 4600
	-1   0    0    1   
$EndComp
Wire Wire Line
	3450 5100 6300 5100
Wire Wire Line
	3450 5200 5200 5200
Wire Wire Line
	3450 5300 5400 5300
Wire Wire Line
	6300 4500 5450 4500
Wire Wire Line
	5150 4700 6300 4700
Wire Wire Line
	6300 4600 5600 4600
Wire Wire Line
	5600 4600 5600 4800
Wire Wire Line
	5600 4800 5150 4800
Wire Wire Line
	5150 4600 5450 4600
Wire Wire Line
	5450 4600 5450 4500
Wire Wire Line
	4450 4600 3600 4600
Connection ~ 3600 4600
Wire Wire Line
	4450 4750 3750 4750
Connection ~ 3750 4750
Wire Wire Line
	3750 4750 3750 4800
Wire Wire Line
	3750 4400 3750 4750
Wire Wire Line
	3600 4400 3600 4600
Text Notes 2900 5650 0    118  ~ 0
ECRAN TFT
Wire Notes Line
	2900 4150 2900 5700
Wire Notes Line
	2900 5700 3900 5700
Wire Notes Line
	3900 5700 3900 4150
Wire Notes Line
	3900 4150 2900 4150
Wire Notes Line
	4300 4200 4300 4950
Wire Notes Line
	4300 4950 5250 4950
Wire Notes Line
	5250 4950 5250 4200
Wire Notes Line
	5250 4200 4300 4200
Text Notes 4350 4350 0    118  ~ 0
Encoder
Wire Notes Line
	6700 600  10900 600 
Wire Notes Line
	10900 600  10900 2300
Wire Notes Line
	10900 2300 6700 2300
Wire Notes Line
	6700 2300 6700 600 
Text Notes 6800 2250 0    118  ~ 0
PLL\nADF4350
Text Notes 8200 5750 0    118  ~ 0
Attenuateur\nPE4302
$Comp
L Regulator_Linear:L78L08_SOT89 U10
U 1 1 5C8034EC
P 1950 1700
F 0 "U10" H 1950 1942 50  0000 C CNN
F 1 "L78L08_SOT89" H 1950 1851 50  0000 C CNN
F 2 "Package_TO_SOT_SMD:SOT-89-3" H 1950 1900 50  0001 C CIN
F 3 "http://www.st.com/content/ccc/resource/technical/document/datasheet/15/55/e5/aa/23/5b/43/fd/CD00000446.pdf/files/CD00000446.pdf/jcr:content/translations/en.CD00000446.pdf" H 1950 1650 50  0001 C CNN
	1    1950 1700
	1    0    0    -1  
$EndComp
Wire Wire Line
	1350 1700 1550 1700
Wire Wire Line
	2250 1700 2400 1700
$Comp
L power:GND #PWR0126
U 1 1 5C806BE4
P 1950 2000
F 0 "#PWR0126" H 1950 1750 50  0001 C CNN
F 1 "GND" H 1955 1827 50  0000 C CNN
F 2 "" H 1950 2000 50  0001 C CNN
F 3 "" H 1950 2000 50  0001 C CNN
	1    1950 2000
	1    0    0    -1  
$EndComp
$Comp
L power:+3V3 #PWR0127
U 1 1 5C80802E
P 9950 1150
F 0 "#PWR0127" H 9950 1000 50  0001 C CNN
F 1 "+3V3" H 9965 1323 50  0000 C CNN
F 2 "" H 9950 1150 50  0001 C CNN
F 3 "" H 9950 1150 50  0001 C CNN
	1    9950 1150
	1    0    0    -1  
$EndComp
$Comp
L power:GND #PWR0128
U 1 1 5C808115
P 9000 1150
F 0 "#PWR0128" H 9000 900 50  0001 C CNN
F 1 "GND" V 9005 1022 50  0000 R CNN
F 2 "" H 9000 1150 50  0001 C CNN
F 3 "" H 9000 1150 50  0001 C CNN
	1    9000 1150
	0    1    1    0   
$EndComp
Wire Wire Line
	9850 1150 9950 1150
Wire Wire Line
	9200 1150 9000 1150
$Comp
L power:GND #PWR0129
U 1 1 5C843256
P 4050 2700
F 0 "#PWR0129" H 4050 2450 50  0001 C CNN
F 1 "GND" H 4055 2527 50  0000 C CNN
F 2 "" H 4050 2700 50  0001 C CNN
F 3 "" H 4050 2700 50  0001 C CNN
	1    4050 2700
	1    0    0    -1  
$EndComp
$Comp
L power:+3V3 #PWR0130
U 1 1 5C84328D
P 4050 2600
F 0 "#PWR0130" H 4050 2450 50  0001 C CNN
F 1 "+3V3" H 4065 2773 50  0000 C CNN
F 2 "" H 4050 2600 50  0001 C CNN
F 3 "" H 4050 2600 50  0001 C CNN
	1    4050 2600
	1    0    0    -1  
$EndComp
Wire Wire Line
	3800 2700 4050 2700
Wire Wire Line
	4050 2600 3800 2600
$Comp
L Connector_Generic:Conn_01x02 J14
U 1 1 5C860AA1
P 3600 2600
F 0 "J14" H 3520 2817 50  0000 C CNN
F 1 "Alim_3V3" H 3520 2726 50  0000 C CNN
F 2 "Connector_Molex:Molex_KK-254_AE-6410-02A_1x02_P2.54mm_Vertical" H 3600 2600 50  0001 C CNN
F 3 "~" H 3600 2600 50  0001 C CNN
	1    3600 2600
	-1   0    0    -1  
$EndComp
Wire Wire Line
	7000 3200 7000 3350
$Comp
L Connector_Generic:Conn_01x02 J20
U 1 1 5C86E26B
P 6200 3350
F 0 "J20" H 6120 3567 50  0000 C CNN
F 1 "Alim_Arduino" H 6120 3476 50  0000 C CNN
F 2 "Connector_Molex:Molex_KK-254_AE-6410-02A_1x02_P2.54mm_Vertical" H 6200 3350 50  0001 C CNN
F 3 "~" H 6200 3350 50  0001 C CNN
	1    6200 3350
	-1   0    0    -1  
$EndComp
$Comp
L power:GND #PWR0131
U 1 1 5C86E278
P 6700 3450
F 0 "#PWR0131" H 6700 3200 50  0001 C CNN
F 1 "GND" H 6705 3277 50  0000 C CNN
F 2 "" H 6700 3450 50  0001 C CNN
F 3 "" H 6700 3450 50  0001 C CNN
	1    6700 3450
	1    0    0    -1  
$EndComp
Wire Wire Line
	7000 3350 6400 3350
Wire Wire Line
	6400 3450 6700 3450
Connection ~ 7000 3350
Wire Wire Line
	7000 3350 7000 3800
$Comp
L power:GND #PWR0132
U 1 1 5C874970
P 8350 1000
F 0 "#PWR0132" H 8350 750 50  0001 C CNN
F 1 "GND" H 8355 827 50  0000 C CNN
F 2 "" H 8350 1000 50  0001 C CNN
F 3 "" H 8350 1000 50  0001 C CNN
	1    8350 1000
	1    0    0    -1  
$EndComp
$Comp
L power:+3V3 #PWR0133
U 1 1 5C874976
P 8350 900
F 0 "#PWR0133" H 8350 750 50  0001 C CNN
F 1 "+3V3" H 8365 1073 50  0000 C CNN
F 2 "" H 8350 900 50  0001 C CNN
F 3 "" H 8350 900 50  0001 C CNN
	1    8350 900 
	1    0    0    -1  
$EndComp
Wire Wire Line
	8100 1000 8350 1000
Wire Wire Line
	8350 900  8100 900 
$Comp
L Connector_Generic:Conn_01x02 J30
U 1 1 5C87497E
P 7900 900
F 0 "J30" H 7820 1117 50  0000 C CNN
F 1 "Alim_ADF" H 7820 1026 50  0000 C CNN
F 2 "Connector_Molex:Molex_KK-254_AE-6410-02A_1x02_P2.54mm_Vertical" H 7900 900 50  0001 C CNN
F 3 "~" H 7900 900 50  0001 C CNN
	1    7900 900 
	-1   0    0    -1  
$EndComp
$Comp
L Connector_Generic:Conn_01x02 J13
U 1 1 5C883EEE
P 2800 2650
F 0 "J13" H 2720 2867 50  0000 C CNN
F 1 "Alim_5V" H 2720 2776 50  0000 C CNN
F 2 "Connector_Molex:Molex_KK-254_AE-6410-02A_1x02_P2.54mm_Vertical" H 2800 2650 50  0001 C CNN
F 3 "~" H 2800 2650 50  0001 C CNN
	1    2800 2650
	-1   0    0    -1  
$EndComp
$Comp
L power:+5V #PWR0134
U 1 1 5C883EF4
P 3300 2650
F 0 "#PWR0134" H 3300 2500 50  0001 C CNN
F 1 "+5V" H 3315 2823 50  0000 C CNN
F 2 "" H 3300 2650 50  0001 C CNN
F 3 "" H 3300 2650 50  0001 C CNN
	1    3300 2650
	1    0    0    -1  
$EndComp
$Comp
L power:GND #PWR0135
U 1 1 5C883EFA
P 3300 2750
F 0 "#PWR0135" H 3300 2500 50  0001 C CNN
F 1 "GND" H 3305 2577 50  0000 C CNN
F 2 "" H 3300 2750 50  0001 C CNN
F 3 "" H 3300 2750 50  0001 C CNN
	1    3300 2750
	1    0    0    -1  
$EndComp
Wire Wire Line
	3300 2650 3000 2650
Wire Wire Line
	3000 2750 3300 2750
$Comp
L Device:R R130
U 1 1 5C88635E
P 7400 1000
F 0 "R130" V 7193 1000 50  0000 C CNN
F 1 "470R" V 7284 1000 50  0000 C CNN
F 2 "Resistor_THT:R_Axial_DIN0207_L6.3mm_D2.5mm_P7.62mm_Horizontal" V 7330 1000 50  0001 C CNN
F 3 "~" H 7400 1000 50  0001 C CNN
	1    7400 1000
	0    1    1    0   
$EndComp
$Comp
L Device:R R131
U 1 1 5C8863DA
P 7350 1700
F 0 "R131" H 7420 1746 50  0000 L CNN
F 1 "1k" H 7420 1655 50  0000 L CNN
F 2 "Resistor_THT:R_Axial_DIN0207_L6.3mm_D2.5mm_P7.62mm_Horizontal" V 7280 1700 50  0001 C CNN
F 3 "~" H 7350 1700 50  0001 C CNN
	1    7350 1700
	1    0    0    -1  
$EndComp
$Comp
L Device:R R132
U 1 1 5C88642A
P 8400 1750
F 0 "R132" V 8600 1750 50  0000 C CNN
F 1 "470R" V 8500 1750 50  0000 C CNN
F 2 "Resistor_THT:R_Axial_DIN0207_L6.3mm_D2.5mm_P7.62mm_Horizontal" V 8330 1750 50  0001 C CNN
F 3 "~" H 8400 1750 50  0001 C CNN
	1    8400 1750
	0    1    1    0   
$EndComp
$Comp
L Device:R R133
U 1 1 5C886492
P 8700 1700
F 0 "R133" H 8770 1746 50  0000 L CNN
F 1 "1k" H 8770 1655 50  0000 L CNN
F 2 "Resistor_THT:R_Axial_DIN0207_L6.3mm_D2.5mm_P7.62mm_Horizontal" V 8630 1700 50  0001 C CNN
F 3 "~" H 8700 1700 50  0001 C CNN
	1    8700 1700
	1    0    0    -1  
$EndComp
$Comp
L Device:R R135
U 1 1 5C8864E6
P 10300 1850
F 0 "R135" H 10370 1896 50  0000 L CNN
F 1 "1k" H 10370 1805 50  0000 L CNN
F 2 "Resistor_THT:R_Axial_DIN0207_L6.3mm_D2.5mm_P7.62mm_Horizontal" V 10230 1850 50  0001 C CNN
F 3 "~" H 10300 1850 50  0001 C CNN
	1    10300 1850
	1    0    0    -1  
$EndComp
$Comp
L Device:R R134
U 1 1 5C88653C
P 10350 1050
F 0 "R134" V 10557 1050 50  0000 C CNN
F 1 "470R" V 10466 1050 50  0000 C CNN
F 2 "Resistor_THT:R_Axial_DIN0207_L6.3mm_D2.5mm_P7.62mm_Horizontal" V 10280 1050 50  0001 C CNN
F 3 "~" H 10350 1050 50  0001 C CNN
	1    10350 1050
	0    -1   -1   0   
$EndComp
Wire Wire Line
	7200 1350 7200 1000
Wire Wire Line
	7200 1000 7250 1000
Connection ~ 7200 1350
Wire Wire Line
	7200 1350 7250 1350
Wire Wire Line
	7550 1000 7600 1000
Wire Wire Line
	7600 1000 7600 1350
Wire Wire Line
	7350 1550 7350 1500
Wire Wire Line
	7350 1500 7600 1500
Connection ~ 7600 1500
Wire Wire Line
	7600 1500 7600 1350
Wire Wire Line
	7350 1850 7600 1850
Connection ~ 7600 1850
Wire Wire Line
	8250 1750 8250 1450
Connection ~ 8250 1450
Connection ~ 8600 1450
Wire Wire Line
	8600 1450 8550 1450
Wire Wire Line
	8700 1550 8700 1450
Connection ~ 8700 1450
Wire Wire Line
	8700 1450 8950 1450
Wire Wire Line
	8550 1750 8600 1750
Wire Wire Line
	8600 1750 8600 1450
Wire Wire Line
	8600 1450 8700 1450
Wire Wire Line
	8700 1850 8950 1850
Connection ~ 8950 1850
Wire Wire Line
	10300 1700 10000 1700
Connection ~ 10000 1700
Wire Wire Line
	10300 2000 10000 2000
Connection ~ 10000 2000
Wire Wire Line
	10200 1050 10200 1350
Connection ~ 10200 1350
Wire Wire Line
	10500 1050 10500 1350
Connection ~ 10500 1350
$Comp
L power:GND #PWR0136
U 1 1 5C8B8519
P 1950 1200
F 0 "#PWR0136" H 1950 950 50  0001 C CNN
F 1 "GND" H 1955 1027 50  0000 C CNN
F 2 "" H 1950 1200 50  0001 C CNN
F 3 "" H 1950 1200 50  0001 C CNN
	1    1950 1200
	1    0    0    -1  
$EndComp
$Comp
L power:GND #PWR0137
U 1 1 5C8BB83B
P 3250 1200
F 0 "#PWR0137" H 3250 950 50  0001 C CNN
F 1 "GND" H 3255 1027 50  0000 C CNN
F 2 "" H 3250 1200 50  0001 C CNN
F 3 "" H 3250 1200 50  0001 C CNN
	1    3250 1200
	1    0    0    -1  
$EndComp
$Comp
L power:GND #PWR0138
U 1 1 5C8BB88A
P 4450 1200
F 0 "#PWR0138" H 4450 950 50  0001 C CNN
F 1 "GND" H 4455 1027 50  0000 C CNN
F 2 "" H 4450 1200 50  0001 C CNN
F 3 "" H 4450 1200 50  0001 C CNN
	1    4450 1200
	1    0    0    -1  
$EndComp
Wire Wire Line
	1650 900  1550 900 
Wire Wire Line
	1550 900  1550 1700
Connection ~ 1550 1700
Wire Wire Line
	1550 1700 1650 1700
Wire Wire Line
	2250 900  2400 900 
Wire Wire Line
	2400 900  2400 1700
Connection ~ 2400 1700
Wire Wire Line
	2400 1700 2700 1700
Wire Wire Line
	2950 900  2850 900 
Wire Wire Line
	2850 900  2850 1700
Connection ~ 2850 1700
Wire Wire Line
	2850 1700 2950 1700
Wire Wire Line
	4150 900  4050 900 
Wire Wire Line
	4050 900  4050 1700
Connection ~ 4050 1700
Wire Wire Line
	4050 1700 4150 1700
Wire Wire Line
	4750 900  4900 900 
Wire Wire Line
	4900 900  4900 1700
Wire Wire Line
	3550 900  3650 900 
Wire Wire Line
	3650 900  3650 1700
Connection ~ 3650 1700
Wire Wire Line
	3650 1700 3750 1700
$Comp
L Device:C C110
U 1 1 5C8DB989
P 3800 1050
F 0 "C110" H 3915 1096 50  0000 L CNN
F 1 "C" H 3915 1005 50  0000 L CNN
F 2 "Capacitor_THT:C_Rect_L4.6mm_W2.0mm_P2.50mm_MKS02_FKP02" H 3838 900 50  0001 C CNN
F 3 "~" H 3800 1050 50  0001 C CNN
	1    3800 1050
	1    0    0    -1  
$EndComp
$Comp
L power:GND #PWR0139
U 1 1 5C8DB98F
P 3800 1200
F 0 "#PWR0139" H 3800 950 50  0001 C CNN
F 1 "GND" H 3805 1027 50  0000 C CNN
F 2 "" H 3800 1200 50  0001 C CNN
F 3 "" H 3800 1200 50  0001 C CNN
	1    3800 1200
	1    0    0    -1  
$EndComp
Wire Wire Line
	3800 900  3650 900 
Connection ~ 3650 900 
$Comp
L Device:C C111
U 1 1 5C8F2464
P 5100 1050
F 0 "C111" H 5215 1096 50  0000 L CNN
F 1 "C" H 5215 1005 50  0000 L CNN
F 2 "Capacitor_THT:C_Rect_L4.6mm_W2.0mm_P2.50mm_MKS02_FKP02" H 5138 900 50  0001 C CNN
F 3 "~" H 5100 1050 50  0001 C CNN
	1    5100 1050
	1    0    0    -1  
$EndComp
$Comp
L power:GND #PWR0140
U 1 1 5C8F246A
P 5100 1200
F 0 "#PWR0140" H 5100 950 50  0001 C CNN
F 1 "GND" H 5105 1027 50  0000 C CNN
F 2 "" H 5100 1200 50  0001 C CNN
F 3 "" H 5100 1200 50  0001 C CNN
	1    5100 1200
	1    0    0    -1  
$EndComp
Wire Wire Line
	4900 900  5100 900 
Connection ~ 4900 900 
$Comp
L Regulator_Linear:L78L05_TO92 U111
U 1 1 5C8FC8B0
P 3250 900
F 0 "U111" H 3250 1142 50  0000 C CNN
F 1 "L78L05_TO92" H 3250 1051 50  0000 C CNN
F 2 "Package_TO_SOT_THT:TO-92_Inline" H 3250 1125 50  0001 C CIN
F 3 "http://www.st.com/content/ccc/resource/technical/document/datasheet/15/55/e5/aa/23/5b/43/fd/CD00000446.pdf/files/CD00000446.pdf/jcr:content/translations/en.CD00000446.pdf" H 3250 850 50  0001 C CNN
	1    3250 900 
	1    0    0    -1  
$EndComp
$Comp
L Regulator_Linear:L78L33_TO92 U112
U 1 1 5C901986
P 4450 900
F 0 "U112" H 4450 1142 50  0000 C CNN
F 1 "L78L33_TO92" H 4450 1051 50  0000 C CNN
F 2 "Package_TO_SOT_THT:TO-92_Inline" H 4450 1125 50  0001 C CIN
F 3 "http://www.st.com/content/ccc/resource/technical/document/datasheet/15/55/e5/aa/23/5b/43/fd/CD00000446.pdf/files/CD00000446.pdf/jcr:content/translations/en.CD00000446.pdf" H 4450 850 50  0001 C CNN
	1    4450 900 
	1    0    0    -1  
$EndComp
$Comp
L Regulator_Linear:L78L08_TO92 U110
U 1 1 5C906BE2
P 1950 900
F 0 "U110" H 1950 1142 50  0000 C CNN
F 1 "L78L08_TO92" H 1950 1051 50  0000 C CNN
F 2 "Package_TO_SOT_THT:TO-92_Inline" H 1950 1125 50  0001 C CIN
F 3 "http://www.st.com/content/ccc/resource/technical/document/datasheet/15/55/e5/aa/23/5b/43/fd/CD00000446.pdf/files/CD00000446.pdf/jcr:content/translations/en.CD00000446.pdf" H 1950 850 50  0001 C CNN
	1    1950 900 
	1    0    0    -1  
$EndComp
Text Notes 4300 2950 0    118  ~ 0
Alimentation\n
Wire Notes Line
	8150 3850 8150 5800
Wire Notes Line
	9450 5800 9450 3850
Wire Notes Line
	8150 5800 9450 5800
Wire Notes Line
	8150 3850 9450 3850
Wire Notes Line
	9700 4800 11000 4800
Wire Notes Line
	9700 3900 11000 3900
$Comp
L Connector_Generic:Conn_01x02 J51
U 1 1 5E92AB2C
P 1750 3900
F 0 "J51" H 1668 4117 50  0000 C CNN
F 1 "Conn_01x02" H 1668 4026 50  0000 C CNN
F 2 "Connector_PinHeader_2.54mm:PinHeader_1x02_P2.54mm_Vertical" H 1750 3900 50  0001 C CNN
F 3 "~" H 1750 3900 50  0001 C CNN
	1    1750 3900
	-1   0    0    -1  
$EndComp
Wire Wire Line
	2150 4000 2150 4100
Wire Wire Line
	1950 4000 2150 4000
$Comp
L power:GND #PWR0141
U 1 1 5E949E7D
P 2150 4100
F 0 "#PWR0141" H 2150 3850 50  0001 C CNN
F 1 "GND" H 2155 3927 50  0000 C CNN
F 2 "" H 2150 4100 50  0001 C CNN
F 3 "" H 2150 4100 50  0001 C CNN
	1    2150 4100
	1    0    0    -1  
$EndComp
Text Notes 1450 3650 0    118  ~ 0
Inter Menu
Wire Notes Line
	1400 3500 2400 3500
Wire Notes Line
	2400 3500 2400 4250
Wire Notes Line
	2400 4250 1400 4250
Wire Notes Line
	1400 4250 1400 3500
$Comp
L Connector_Generic:Conn_01x03 J22
U 1 1 5E9574B1
P 4350 3550
F 0 "J22" H 4430 3592 50  0000 L CNN
F 1 "Conn_01x03" H 4430 3501 50  0000 L CNN
F 2 "Connector_PinHeader_2.54mm:PinHeader_1x03_P2.54mm_Vertical" H 4350 3550 50  0001 C CNN
F 3 "~" H 4350 3550 50  0001 C CNN
	1    4350 3550
	-1   0    0    -1  
$EndComp
Wire Wire Line
	4550 3550 5000 3550
$Comp
L power:GND #PWR0142
U 1 1 5E97936E
P 5000 3550
F 0 "#PWR0142" H 5000 3300 50  0001 C CNN
F 1 "GND" H 5005 3377 50  0000 C CNN
F 2 "" H 5000 3550 50  0001 C CNN
F 3 "" H 5000 3550 50  0001 C CNN
	1    5000 3550
	-1   0    0    -1  
$EndComp
Wire Wire Line
	4550 3800 4550 3650
Wire Notes Line
	4050 3950 5500 3950
Wire Notes Line
	5500 3950 5500 3100
Wire Notes Line
	5500 3100 4050 3100
Wire Notes Line
	4050 3100 4050 3950
Text Notes 4150 3300 0    118  ~ 0
Port Serie\n
Wire Wire Line
	3950 3900 3950 4100
Wire Wire Line
	3950 4100 5550 4100
Wire Wire Line
	5550 4100 5550 4400
Wire Wire Line
	1950 3900 3950 3900
Wire Wire Line
	5550 4400 6300 4400
Wire Wire Line
	4550 3450 5900 3450
Wire Wire Line
	5900 3450 5900 4200
Wire Wire Line
	5900 4200 6300 4200
Wire Wire Line
	6300 4300 5750 4300
Wire Wire Line
	5750 4300 5750 3800
Wire Wire Line
	5750 3800 4550 3800
$Comp
L Connector_Generic:Conn_01x03 J80
U 1 1 5E9FB44B
P 8500 6200
F 0 "J80" H 8580 6242 50  0000 L CNN
F 1 "Conn_01x03" H 8580 6151 50  0000 L CNN
F 2 "Connector_PinHeader_2.54mm:PinHeader_1x03_P2.54mm_Vertical" H 8500 6200 50  0001 C CNN
F 3 "~" H 8500 6200 50  0001 C CNN
	1    8500 6200
	1    0    0    -1  
$EndComp
Wire Wire Line
	8300 6100 7800 6100
Wire Wire Line
	7800 6100 7800 5400
Wire Wire Line
	7800 5400 7300 5400
Wire Wire Line
	7300 5500 7700 5500
Wire Wire Line
	7700 5500 7700 6200
Wire Wire Line
	7700 6300 8300 6300
Wire Wire Line
	8300 6200 7700 6200
$Comp
L power:GND #PWR0143
U 1 1 5EA29C3C
P 7700 6300
F 0 "#PWR0143" H 7700 6050 50  0001 C CNN
F 1 "GND" H 7705 6127 50  0000 C CNN
F 2 "" H 7700 6300 50  0001 C CNN
F 3 "" H 7700 6300 50  0001 C CNN
	1    7700 6300
	1    0    0    -1  
$EndComp
$EndSCHEMATC
