%
(Header)
(Generated by gcodetools from Inkscape.)
(Using default header. To add your own header create file "header" in the output dir.)
M3
(Header end.)
G21 (All units in mm)

(Start cutting path id: path48997)
(Change tool to Cone cutter)

G00 Z 4.9000
G00 X 122.3076 Y 27.9676

G01 Z -0.1100 F 100.0000(Penetrate)
G02 X 121.7570 Y 28.0696 Z -0.1100 I 0.0000 J 1.5358 F 400.0000
G02 X 121.3921 Y 28.3191 Z -0.1100 I 0.3432 J 0.8937
G02 X 121.1691 Y 28.7104 Z -0.1100 I 0.7765 J 0.7016
G02 X 121.0722 Y 29.3494 Z -0.1100 I 2.0584 J 0.6390
G02 X 121.1693 Y 29.9657 Z -0.1100 I 2.0063 J 0.0000
G02 X 121.3970 Y 30.3553 Z -0.1100 I 0.9984 J -0.3223
G02 X 121.7662 Y 30.6051 Z -0.1100 I 0.7179 J -0.6631
G02 X 122.3174 Y 30.7068 Z -0.1100 I 0.5512 J -1.4431
G02 X 122.8342 Y 30.5992 Z -0.1100 I -0.0000 J -1.2947
G02 X 123.1865 Y 30.3284 Z -0.1100 I -0.3661 J -0.8408
G02 X 123.3939 Y 29.9199 Z -0.1100 I -0.8830 J -0.7052
G02 X 123.4868 Y 29.2249 Z -0.1100 I -2.5540 J -0.6950
G01 X 123.4868 Y 29.2054 Z -0.1100
G01 X 121.7925 Y 29.2054 Z -0.1100
G03 X 121.8369 Y 28.8339 Z -0.1100 I 1.5752 J -0.0000
G03 X 121.9341 Y 28.6219 Z -0.1100 I 0.5949 J 0.1444
G03 X 122.1052 Y 28.4803 Z -0.1100 I 0.3696 J 0.2725
G03 X 122.3418 Y 28.4265 Z -0.1100 I 0.2365 J 0.4938
G03 X 122.6375 Y 28.5182 Z -0.1100 I -0.0000 J 0.5226
G03 X 122.8008 Y 28.7415 Z -0.1100 I -0.2360 J 0.3440
G01 X 123.4477 Y 28.6853 Z -0.1100
G02 X 123.0255 Y 28.1747 Z -0.1100 I -0.9866 J 0.3859
G02 X 122.3076 Y 27.9676 Z -0.1100 I -0.7180 J 1.1404
G01 X 122.3076 Y 27.9676 Z -0.1100
G00 Z 4.9000

(Change tool to Cone cutter)

G00 Z 4.9000
G00 X 122.3076 Y 30.2747

G01 Z -0.1100 F 100.0000(Penetrate)
G03 X 122.0888 Y 30.2276 Z -0.1100 I -0.0000 J -0.5321 F 400.0000
G03 X 121.9341 Y 30.1062 Z -0.1100 I 0.1690 J -0.3748
G03 X 121.8421 Y 29.9246 Z -0.1100 I 0.4359 J -0.3348
G03 X 121.7973 Y 29.6350 Z -0.1100 I 1.0926 J -0.3170
G01 X 122.8227 Y 29.6350 Z -0.1100
G03 X 122.7654 Y 29.9397 Z -0.1100 I -1.2404 J -0.0756
G03 X 122.6689 Y 30.1136 Z -0.1100 I -0.4868 J -0.1565
G03 X 122.5141 Y 30.2307 Z -0.1100 I -0.3296 J -0.2746
G03 X 122.3076 Y 30.2747 Z -0.1100 I -0.2065 J -0.4630
G01 X 122.3076 Y 30.2747 Z -0.1100
G00 Z 4.9000

(End cutting path id: path48997)


(Start cutting path id: path48995)
(Change tool to Cone cutter)

G00 Z 4.9000
G00 X 119.8369 Y 31.1341

G01 Z -0.1100 F 100.0000(Penetrate)
G01 X 119.8369 Y 31.6394 Z -0.1100 F 400.0000
G01 X 120.5229 Y 31.6394 Z -0.1100
G01 X 120.5229 Y 31.1341 Z -0.1100
G01 X 119.8369 Y 31.1341 Z -0.1100
G00 Z 4.9000

(Change tool to Cone cutter)

G00 Z 4.9000
G00 X 119.8369 Y 28.0164

G01 Z -0.1100 F 100.0000(Penetrate)
G01 X 119.8369 Y 30.6580 Z -0.1100 F 400.0000
G01 X 120.5229 Y 30.6580 Z -0.1100
G01 X 120.5229 Y 28.0164 Z -0.1100
G01 X 119.8369 Y 28.0164 Z -0.1100
G00 Z 4.9000

(End cutting path id: path48995)


(Start cutting path id: path48993)
(Change tool to Cone cutter)

G00 Z 4.9000
G00 X 118.8481 Y 27.9724

G01 Z -0.1100 F 100.0000(Penetrate)
G02 X 118.5653 Y 28.0206 Z -0.1100 I -0.0000 J 0.8543 F 400.0000
G02 X 118.3818 Y 28.1360 Z -0.1100 I 0.1615 J 0.4605
G02 X 118.2682 Y 28.3225 Z -0.1100 I 0.3396 J 0.3346
G02 X 118.2182 Y 28.6365 Z -0.1100 I 0.9607 J 0.3140
G01 X 118.2182 Y 30.1941 Z -0.1100
G01 X 117.8838 Y 30.1941 Z -0.1100
G01 X 117.8838 Y 30.6580 Z -0.1100
G01 X 118.2524 Y 30.6580 Z -0.1100
G01 X 118.4673 Y 31.2781 Z -0.1100
G01 X 118.8970 Y 31.2781 Z -0.1100
G01 X 118.8970 Y 30.6580 Z -0.1100
G01 X 119.3974 Y 30.6580 Z -0.1100
G01 X 119.3974 Y 30.1941 Z -0.1100
G01 X 118.8970 Y 30.1941 Z -0.1100
G01 X 118.8970 Y 28.8221 Z -0.1100
G03 X 118.9202 Y 28.6373 Z -0.1100 I 0.7444 J -0.0000
G03 X 118.9702 Y 28.5364 Z -0.1100 I 0.2632 J 0.0675
G03 X 119.0562 Y 28.4731 Z -0.1100 I 0.1642 J 0.1331
G03 X 119.1972 Y 28.4461 Z -0.1100 I 0.1410 J 0.3543
G03 X 119.2771 Y 28.4520 Z -0.1100 I -0.0000 J 0.5426
G03 X 119.4267 Y 28.4803 Z -0.1100 I -0.2883 J 1.9354
G01 X 119.4267 Y 28.0555 Z -0.1100
G02 X 119.1691 Y 27.9954 Z -0.1100 I -0.4743 J 1.4507
G02 X 118.8481 Y 27.9724 Z -0.1100 I -0.3211 J 2.2379
G01 X 118.8481 Y 27.9724 Z -0.1100
G00 Z 4.9000

(End cutting path id: path48993)


(Start cutting path id: path48991)
(Change tool to Cone cutter)

G00 Z 4.9000
G00 X 116.2261 Y 28.0164

G01 Z -0.1100 F 100.0000(Penetrate)
G01 X 116.2261 Y 30.0379 Z -0.1100 F 400.0000
G03 X 116.2239 Y 30.2551 Z -0.1100 I -11.2153 J -0.0000
G03 X 116.2190 Y 30.3992 Z -0.1100 I -4.9389 J -0.0957
G03 X 116.2131 Y 30.5456 Z -0.1100 I -11.2780 J -0.3850
G03 X 116.2069 Y 30.6580 Z -0.1100 I -6.6447 J -0.3132
G01 X 116.8611 Y 30.6580 Z -0.1100
G02 X 116.8663 Y 30.6138 Z -0.1100 I -0.5138 J -0.0818
G02 X 116.8807 Y 30.3894 Z -0.1100 I -13.2804 J -0.9643
G02 X 116.8913 Y 30.1672 Z -0.1100 I -16.3535 J -0.8980
G02 X 116.8928 Y 30.0940 Z -0.1100 I -1.7725 J -0.0732
G01 X 116.9029 Y 30.0940 Z -0.1100
G02 X 117.0139 Y 30.3667 Z -0.1100 I 3.3477 J -1.2040
G02 X 117.0811 Y 30.4846 Z -0.1100 I 0.6880 J -0.3139
G02 X 117.1700 Y 30.5870 Z -0.1100 I 0.4760 J -0.3240
G02 X 117.2666 Y 30.6531 Z -0.1100 I 0.2885 J -0.3178
G02 X 117.3780 Y 30.6930 Z -0.1100 I 0.1996 J -0.3818
G02 X 117.5352 Y 30.7093 Z -0.1100 I 0.1571 J -0.7516
G02 X 117.6646 Y 30.6982 Z -0.1100 I -0.0000 J -0.7618
G02 X 117.7476 Y 30.6726 Z -0.1100 I -0.0578 J -0.3353
G01 X 117.7476 Y 30.0989 Z -0.1100
G03 X 117.5807 Y 30.1277 Z -0.1100 I -0.3934 J -1.7835
G03 X 117.4546 Y 30.1355 Z -0.1100 I -0.1261 J -1.0088
G03 X 117.2273 Y 30.0801 Z -0.1100 I -0.0000 J -0.4941
G03 X 117.0542 Y 29.9280 Z -0.1100 I 0.2204 J -0.4252
G03 X 116.9574 Y 29.7067 Z -0.1100 I 0.5388 J -0.3676
G03 X 116.9126 Y 29.3128 Z -0.1100 I 1.7115 J -0.3939
G01 X 116.9126 Y 28.0164 Z -0.1100
G01 X 116.2261 Y 28.0164 Z -0.1100
G00 Z 4.9000

(End cutting path id: path48991)


(Start cutting path id: path48989)
(Change tool to Cone cutter)

G00 Z 4.9000
G00 X 115.6816 Y 29.3396

G01 Z -0.1100 F 100.0000(Penetrate)
G02 X 115.5786 Y 28.7394 Z -0.1100 I -1.8009 J 0.0000 F 400.0000
G02 X 115.3252 Y 28.3313 Z -0.1100 I -1.0564 J 0.3734
G02 X 114.9248 Y 28.0722 Z -0.1100 I -0.7766 J 0.7610
G02 X 114.3388 Y 27.9676 Z -0.1100 I -0.5859 J 1.5887
G02 X 113.7658 Y 28.0722 Z -0.1100 I -0.0000 J 1.6214
G02 X 113.3696 Y 28.3338 Z -0.1100 I 0.3806 J 1.0072
G02 X 113.1197 Y 28.7409 Z -0.1100 I 0.8099 J 0.7775
G02 X 113.0180 Y 29.3396 Z -0.1100 I 1.7131 J 0.5988
G02 X 113.1197 Y 29.9357 Z -0.1100 I 1.7989 J 0.0000
G02 X 113.3696 Y 30.3406 Z -0.1100 I 1.0507 J -0.3690
G02 X 113.7662 Y 30.6011 Z -0.1100 I 0.7680 J -0.7373
G02 X 114.3535 Y 30.7068 Z -0.1100 I 0.5872 J -1.5777
G02 X 114.9558 Y 30.6020 Z -0.1100 I -0.0000 J -1.7828
G02 X 115.3398 Y 30.3528 Z -0.1100 I -0.3378 J -0.9412
G02 X 115.5798 Y 29.9599 Z -0.1100 I -0.7464 J -0.7257
G02 X 115.6816 Y 29.3396 Z -0.1100 I -1.8387 J -0.6203
G01 X 115.6816 Y 29.3396 Z -0.1100
G00 Z 4.9000

(Change tool to Cone cutter)

G00 Z 4.9000
G00 X 114.9638 Y 29.3396

G01 Z -0.1100 F 100.0000(Penetrate)
G03 X 114.9133 Y 29.7944 Z -0.1100 I -2.0721 J -0.0000 F 400.0000
G03 X 114.8100 Y 30.0232 Z -0.1100 I -0.6082 J -0.1368
G03 X 114.6260 Y 30.1764 Z -0.1100 I -0.3917 J -0.2837
G03 X 114.3633 Y 30.2356 Z -0.1100 I -0.2627 J -0.5526
G03 X 113.9525 Y 30.0214 Z -0.1100 I 0.0000 J -0.5008
G03 X 113.7383 Y 29.3396 Z -0.1100 I 0.9773 J -0.6817
G03 X 113.7857 Y 28.9119 Z -0.1100 I 1.9517 J 0.0000
G03 X 113.8896 Y 28.6658 Z -0.1100 I 0.7333 J 0.1647
G03 X 114.0766 Y 28.4985 Z -0.1100 I 0.4201 J 0.2815
G03 X 114.3315 Y 28.4363 Z -0.1100 I 0.2549 J 0.4908
G03 X 114.7473 Y 28.6528 Z -0.1100 I 0.0000 J 0.5076
G03 X 114.9638 Y 29.3396 Z -0.1100 I -0.9812 J 0.6868
G01 X 114.9638 Y 29.3396 Z -0.1100
G00 Z 4.9000

(End cutting path id: path48989)


(Start cutting path id: path48987)
(Change tool to Cone cutter)

G00 Z 4.9000
G00 X 112.6274 Y 29.0076

G01 Z -0.1100 F 100.0000(Penetrate)
G02 X 112.5235 Y 28.5557 Z -0.1100 I -1.0341 J 0.0000 F 400.0000
G02 X 112.2514 Y 28.2337 Z -0.1100 I -0.7689 J 0.3735
G02 X 111.8512 Y 28.0509 Z -0.1100 I -0.6734 J 0.9452
G02 X 111.1528 Y 27.9676 Z -0.1100 I -0.6984 J 2.8834
G02 X 110.5117 Y 28.0391 Z -0.1100 I -0.0000 J 2.9100
G02 X 110.1152 Y 28.2019 Z -0.1100 I 0.2830 J 1.2528
G02 X 109.8151 Y 28.4902 Z -0.1100 I 0.5331 J 0.8552
G02 X 109.6318 Y 28.9124 Z -0.1100 I 1.0192 J 0.6935
G01 X 110.3276 Y 29.0271 Z -0.1100
G03 X 110.4391 Y 28.7839 Z -0.1100 I 0.7379 J 0.1911
G03 X 110.6035 Y 28.6292 Z -0.1100 I 0.4461 J 0.3093
G03 X 110.8189 Y 28.5446 Z -0.1100 I 0.3652 J 0.6136
G03 X 111.1723 Y 28.5071 Z -0.1100 I 0.3535 J 1.6471
G03 X 111.7616 Y 28.6723 Z -0.1100 I -0.0000 J 1.1336
G03 X 111.9267 Y 28.9661 Z -0.1100 I -0.1788 J 0.2938
G03 X 111.9026 Y 29.1031 Z -0.1100 I -0.4010 J -0.0000
G03 X 111.8388 Y 29.2078 Z -0.1100 I -0.2922 J -0.1063
G03 X 111.7438 Y 29.2892 Z -0.1100 I -0.3548 J -0.3182
G03 X 111.5947 Y 29.3665 Z -0.1100 I -0.4677 J -0.7195
G03 X 111.4351 Y 29.4190 Z -0.1100 I -0.4647 J -1.1438
G03 X 110.9917 Y 29.5203 Z -0.1100 I -2.2377 J -8.7730
G02 X 110.6077 Y 29.6167 Z -0.1100 I 2.8214 J 12.0485
G02 X 110.4546 Y 29.6643 Z -0.1100 I 0.5261 J 1.9616
G02 X 110.3062 Y 29.7268 Z -0.1100 I 0.6453 J 1.7395
G02 X 110.1811 Y 29.7937 Z -0.1100 I 0.6167 J 1.3032
G02 X 110.0667 Y 29.8781 Z -0.1100 I 0.4648 J 0.7497
G02 X 109.9736 Y 29.9744 Z -0.1100 I 0.5140 J 0.5904
G02 X 109.8991 Y 30.0854 Z -0.1100 I 0.5638 J 0.4586
G02 X 109.8393 Y 30.2210 Z -0.1100 I 0.7833 J 0.4266
G02 X 109.8058 Y 30.3646 Z -0.1100 I 0.8034 J 0.2632
G02 X 109.7929 Y 30.5457 Z -0.1100 I 1.2670 J 0.1811
G02 X 109.8894 Y 30.9620 Z -0.1100 I 0.9466 J 0.0000
G02 X 110.1420 Y 31.2586 Z -0.1100 I 0.7065 J -0.3460
G02 X 110.5183 Y 31.4301 Z -0.1100 I 0.6378 J -0.9004
G02 X 111.1625 Y 31.5076 Z -0.1100 I 0.6443 J -2.6403
G02 X 111.7838 Y 31.4435 Z -0.1100 I 0.0000 J -3.0415
G02 X 112.1220 Y 31.3074 Z -0.1100 I -0.2117 J -1.0147
G02 X 112.3729 Y 31.0576 Z -0.1100 I -0.4144 J -0.6671
G02 X 112.5371 Y 30.6458 Z -0.1100 I -1.0438 J -0.6548
G01 X 111.8388 Y 30.5506 Z -0.1100
G03 X 111.7523 Y 30.7500 Z -0.1100 I -0.6171 J -0.1492
G03 X 111.6191 Y 30.8850 Z -0.1100 I -0.4042 J -0.2655
G03 X 111.4447 Y 30.9625 Z -0.1100 I -0.2954 J -0.4303
G03 X 111.1479 Y 30.9973 Z -0.1100 I -0.2968 J -1.2452
G03 X 110.6397 Y 30.8512 Z -0.1100 I 0.0000 J -0.9568
G03 X 110.4936 Y 30.5872 Z -0.1100 I 0.1655 J -0.2640
G03 X 110.5130 Y 30.4597 Z -0.1100 I 0.4289 J -0.0000
G03 X 110.5620 Y 30.3675 Z -0.1100 I 0.2688 J 0.0837
G03 X 110.6417 Y 30.2937 Z -0.1100 I 0.3173 J 0.2629
G03 X 110.7695 Y 30.2210 Z -0.1100 I 0.4361 J 0.6178
G03 X 110.9095 Y 30.1725 Z -0.1100 I 0.4102 J 0.9572
G03 X 111.3237 Y 30.0721 Z -0.1100 I 2.2385 J 8.3302
G02 X 111.8147 Y 29.9524 Z -0.1100 I -1.7333 J -8.1826
G02 X 112.0317 Y 29.8767 Z -0.1100 I -0.4601 J -1.6680
G02 X 112.2364 Y 29.7732 Z -0.1100 I -0.5416 J -1.3238
G02 X 112.3711 Y 29.6692 Z -0.1100 I -0.4107 J -0.6716
G02 X 112.4797 Y 29.5412 Z -0.1100 I -0.5154 J -0.5476
G02 X 112.5615 Y 29.3860 Z -0.1100 I -0.6817 J -0.4584
G02 X 112.6091 Y 29.2189 Z -0.1100 I -0.7669 J -0.3090
G02 X 112.6274 Y 29.0076 Z -0.1100 I -1.2134 J -0.2113
G01 X 112.6274 Y 29.0076 Z -0.1100
G00 Z 4.9000

(End cutting path id: path48987)


(Start cutting path id: path1647-3-6-3)
(Change tool to Cone cutter)

G00 Z 4.9000
G00 X 116.9146 Y 25.6467

G01 Z -0.1100 F 100.0000(Penetrate)
G01 X 116.9146 Y 19.6078 Z -0.1100 F 400.0000
G00 Z 4.9000

(End cutting path id: path1647-3-6-3)


(Start cutting path id: path952-3)
(Change tool to Cone cutter)

G00 Z 4.9000
G00 X 117.0557 Y 19.5940

G01 Z -0.1100 F 100.0000(Penetrate)
G02 X 114.8955 Y 20.3719 Z -0.1100 I -0.1411 J 2.9967 F 400.0000
G02 X 113.9179 Y 22.4494 Z -0.1100 I 2.0191 J 2.2188
G02 X 114.6956 Y 24.6096 Z -0.1100 I 2.9967 J 0.1413
G02 X 116.7730 Y 25.5874 Z -0.1100 I 2.2190 J -2.0189
G02 X 118.9333 Y 24.8099 Z -0.1100 I 0.1416 J -2.9967
G02 X 119.9112 Y 22.7326 Z -0.1100 I -2.0187 J -2.2192
G02 X 119.1339 Y 20.5722 Z -0.1100 I -2.9966 J -0.1419
G02 X 117.0567 Y 19.5941 Z -0.1100 I -2.2194 J 2.0185
G01 X 116.9146 Y 22.5907 Z -0.1100
G01 X 117.0557 Y 19.5940 Z -0.1100
G00 Z 4.9000

(End cutting path id: path952-3)


(Start cutting path id: path3315-56)
(Change tool to Cone cutter)

G00 Z 4.9000
G00 X 114.0132 Y 22.5907

G01 Z -0.1100 F 100.0000(Penetrate)
G01 X 119.6640 Y 22.5907 Z -0.1100 F 400.0000
G00 Z 4.9000

(End cutting path id: path3315-56)


(Start cutting path id: path1158-2-2)
(Change tool to Cone cutter)

G00 Z 4.9000
G00 X 90.6259 Y 11.5503

G01 Z -0.1100 F 100.0000(Penetrate)
G03 X 90.5605 Y 11.5491 Z -0.1100 I 0.0391 J -3.9005 F 400.0000
G03 X 90.4951 Y 11.5467 Z -0.1100 I 0.0864 J -3.2251
G03 X 89.2631 Y 11.2584 Z -0.1100 I 0.1683 J -3.4959
G03 X 88.2141 Y 10.5509 Z -0.1100 I 1.4004 J -3.2077
G01 X 93.1094 Y 10.5509 Z -0.1100
G03 X 92.0274 Y 11.2725 Z -0.1100 I -2.4492 J -2.5003
G03 X 90.7566 Y 11.5493 Z -0.1100 I -1.3672 J -3.2219
G03 X 90.6912 Y 11.5504 Z -0.1100 I -0.0880 J -3.2002
G03 X 90.6259 Y 11.5503 Z -0.1100 I -0.0270 J -3.8118
G01 X 90.6259 Y 11.5503 Z -0.1100
G00 Z 4.9000

(Change tool to Cone cutter)

G00 Z 4.9000
G00 X 88.1599 Y 10.5503

G01 Z -0.1100 F 100.0000(Penetrate)
G01 X 88.1599 Y 5.5507 Z -0.1100 F 400.0000
G01 X 88.2105 Y 5.5507 Z -0.1100
G03 X 89.4138 Y 4.7799 Z -0.1100 I 2.4497 J 2.4998
G03 X 90.8248 Y 4.5543 Z -0.1100 I 1.2464 J 3.2705
G01 X 90.7778 Y 5.5507 Z -0.1100
G01 X 90.7788 Y 5.5507 Z -0.1100
G01 X 90.8259 Y 4.5543 Z -0.1100
G03 X 92.0590 Y 4.8425 Z -0.1100 I -0.1667 J 3.4960
G03 X 93.1089 Y 5.5507 Z -0.1100 I -1.3999 J 3.2078
G01 X 93.1601 Y 5.5507 Z -0.1100
G01 X 93.1601 Y 10.5503 Z -0.1100
G01 X 88.1599 Y 10.5503 Z -0.1100
G01 X 88.1599 Y 10.5503 Z -0.1100
G00 Z 4.9000

(End cutting path id: path1158-2-2)


(Start cutting path id: path3315)
(Change tool to Cone cutter)

G00 Z 4.9000
G00 X 89.2548 Y 8.2280

G01 Z -0.1100 F 100.0000(Penetrate)
G01 X 92.2045 Y 8.2280 Z -0.1100 F 400.0000
G00 Z 4.9000

(End cutting path id: path3315)


(Start cutting path id: path1647-3-6)
(Change tool to Cone cutter)

G00 Z 4.9000
G00 X 90.6599 Y 9.9228

G01 Z -0.1100 F 100.0000(Penetrate)
G01 X 90.6599 Y 5.9779 Z -0.1100 F 400.0000
G00 Z 4.9000

(End cutting path id: path1647-3-6)


(Start cutting path id: path4935)
(Change tool to Cone cutter)

G00 Z 4.9000
G00 X 72.5000 Y 9.9603

G01 Z -0.1100 F 100.0000(Penetrate)
G01 X 72.5000 Y 6.3321 Z -0.1100 F 400.0000
G00 Z 4.9000

(End cutting path id: path4935)


(Start cutting path id: path4937)
(Change tool to Cone cutter)

G00 Z 4.9000
G00 X 70.9713 Y 8.2280

G01 Z -0.1100 F 100.0000(Penetrate)
G01 X 73.6633 Y 8.2280 Z -0.1100 F 400.0000
G00 Z 4.9000

(End cutting path id: path4937)


(Start cutting path id: path4933)
(Change tool to Cone cutter)

G00 Z 4.9000
G00 X 72.5966 Y 11.5493

G01 Z -0.1100 F 100.0000(Penetrate)
G03 X 72.4659 Y 11.5504 Z -0.1100 I -0.0956 J -3.4713 F 400.0000
G03 X 72.3352 Y 11.5467 Z -0.1100 I 0.0359 J -3.5432
G03 X 71.1032 Y 11.2584 Z -0.1100 I 0.1683 J -3.4959
G03 X 70.0542 Y 10.5509 Z -0.1100 I 1.4004 J -3.2077
G01 X 74.9495 Y 10.5509 Z -0.1100
G03 X 73.8674 Y 11.2725 Z -0.1100 I -2.4492 J -2.5003
G03 X 72.5966 Y 11.5492 Z -0.1100 I -1.3672 J -3.2219
G01 X 72.5966 Y 11.5493 Z -0.1100
G00 Z 4.9000

(Change tool to Cone cutter)

G00 Z 4.9000
G00 X 69.9999 Y 10.5504

G01 Z -0.1100 F 100.0000(Penetrate)
G01 X 69.9999 Y 5.5507 Z -0.1100 F 400.0000
G01 X 70.0505 Y 5.5507 Z -0.1100
G03 X 71.2538 Y 4.7799 Z -0.1100 I 2.4497 J 2.4998
G03 X 72.6649 Y 4.5543 Z -0.1100 I 1.2464 J 3.2705
G01 X 72.6178 Y 5.5507 Z -0.1100
G01 X 72.6188 Y 5.5507 Z -0.1100
G01 X 72.6659 Y 4.5543 Z -0.1100
G03 X 73.8990 Y 4.8425 Z -0.1100 I -0.1667 J 3.4960
G03 X 74.9489 Y 5.5507 Z -0.1100 I -1.3999 J 3.2079
G01 X 75.0001 Y 5.5507 Z -0.1100
G01 X 75.0001 Y 10.5504 Z -0.1100
G01 X 69.9999 Y 10.5504 Z -0.1100
G00 Z 4.9000

(End cutting path id: path4933)


(Start cutting path id: path4923)
(Change tool to Cone cutter)

G00 Z 4.9000
G00 X 54.7009 Y 11.5493

G01 Z -0.1100 F 100.0000(Penetrate)
G03 X 54.5702 Y 11.5504 Z -0.1100 I -0.0956 J -3.4713 F 400.0000
G03 X 54.4395 Y 11.5467 Z -0.1100 I 0.0359 J -3.5432
G03 X 53.2075 Y 11.2584 Z -0.1100 I 0.1683 J -3.4959
G03 X 52.1585 Y 10.5509 Z -0.1100 I 1.4004 J -3.2077
G01 X 57.0538 Y 10.5509 Z -0.1100
G03 X 55.9717 Y 11.2725 Z -0.1100 I -2.4492 J -2.5003
G03 X 54.7009 Y 11.5492 Z -0.1100 I -1.3672 J -3.2219
G01 X 54.7009 Y 11.5493 Z -0.1100
G00 Z 4.9000

(Change tool to Cone cutter)

G00 Z 4.9000
G00 X 52.1042 Y 10.5504

G01 Z -0.1100 F 100.0000(Penetrate)
G01 X 52.1042 Y 5.5507 Z -0.1100 F 400.0000
G01 X 52.1548 Y 5.5507 Z -0.1100
G03 X 53.3581 Y 4.7799 Z -0.1100 I 2.4497 J 2.4998
G03 X 54.7692 Y 4.5543 Z -0.1100 I 1.2464 J 3.2705
G01 X 54.7221 Y 5.5507 Z -0.1100
G01 X 54.7231 Y 5.5507 Z -0.1100
G01 X 54.7702 Y 4.5543 Z -0.1100
G03 X 56.0033 Y 4.8425 Z -0.1100 I -0.1667 J 3.4960
G03 X 57.0532 Y 5.5507 Z -0.1100 I -1.3999 J 3.2079
G01 X 57.1044 Y 5.5507 Z -0.1100
G01 X 57.1044 Y 10.5504 Z -0.1100
G01 X 52.1042 Y 10.5504 Z -0.1100
G00 Z 4.9000

(End cutting path id: path4923)


(Start cutting path id: path4925)
(Change tool to Cone cutter)

G00 Z 4.9000
G00 X 54.5958 Y 10.9906

G01 Z -0.1100 F 100.0000(Penetrate)
G01 X 54.6042 Y 5.5742 Z -0.1100 F 400.0000
G00 Z 4.9000

(End cutting path id: path4925)


(Start cutting path id: path4927)
(Change tool to Cone cutter)

G00 Z 4.9000
G00 X 53.1967 Y 8.2280

G01 Z -0.1100 F 100.0000(Penetrate)
G01 X 56.0278 Y 8.2280 Z -0.1100 F 400.0000
G00 Z 4.9000

(End cutting path id: path4927)


(Start cutting path id: path4782)
(Change tool to Cone cutter)

G00 Z 4.9000
G00 X 61.4162 Y 33.9167

G01 Z -0.1100 F 100.0000(Penetrate)
G01 X 83.5764 Y 33.9167 Z -0.1100 F 400.0000
G00 Z 4.9000

(End cutting path id: path4782)


(Start cutting path id: path1647-3)
(Change tool to Cone cutter)

G00 Z 4.9000
G00 X 72.4846 Y 40.4321

G01 Z -0.1100 F 100.0000(Penetrate)
G01 X 72.4846 Y 23.4999 Z -0.1100 F 400.0000
G00 Z 4.9000

(End cutting path id: path1647-3)


(Start cutting path id: rect846)
(Change tool to Cone cutter)

G00 Z 4.9000
G00 X 54.4846 Y 49.0000

G01 Z -0.1100 F 100.0000(Penetrate)
G01 X 90.4846 Y 49.0000 Z -0.1100 F 400.0000
G01 X 90.4846 Y 19.0000 Z -0.1100
G01 X 54.4846 Y 19.0000 Z -0.1100
G01 X 54.4846 Y 49.0000 Z -0.1100
G00 Z 4.9000

(End cutting path id: rect846)


(Start cutting path id: path48966)
(Change tool to Cone cutter)

G00 Z 4.9000
G00 X 58.5840 Y 55.6350

G01 Z -0.1100 F 100.0000(Penetrate)
G01 X 57.3066 Y 57.7248 Z -0.1100 F 400.0000
G01 X 55.9551 Y 57.7248 Z -0.1100
G01 X 55.9551 Y 55.6350 Z -0.1100
G01 X 54.8027 Y 55.6350 Z -0.1100
G01 X 54.8027 Y 61.1389 Z -0.1100
G01 X 57.5527 Y 61.1389 Z -0.1100
G02 X 58.4920 Y 61.0097 Z -0.1100 I 0.0000 J -3.4812
G02 X 59.0723 Y 60.7131 Z -0.1100 I -0.4438 J -1.5838
G02 X 59.4560 Y 60.2177 Z -0.1100 I -0.8024 J -1.0178
G02 X 59.6074 Y 59.4982 Z -0.1100 I -1.6333 J -0.7195
G02 X 59.5198 Y 58.9502 Z -0.1100 I -1.7579 J 0.0000
G02 X 59.2793 Y 58.4982 Z -0.1100 I -1.4211 J 0.4663
G02 X 58.9007 Y 58.1591 Z -0.1100 I -1.1500 J 0.9028
G02 X 58.3926 Y 57.9475 Z -0.1100 I -0.9048 J 1.4567
G01 X 59.8809 Y 55.6350 Z -0.1100
G01 X 58.5840 Y 55.6350 Z -0.1100
G00 Z 4.9000

(Change tool to Cone cutter)

G00 Z 4.9000
G00 X 58.4473 Y 59.4514

G01 Z -0.1100 F 100.0000(Penetrate)
G03 X 58.1872 Y 59.9843 Z -0.1100 I -0.6761 J 0.0000 F 400.0000
G03 X 57.4316 Y 60.2443 Z -0.1100 I -0.7556 J -0.9678
G01 X 55.9551 Y 60.2443 Z -0.1100
G01 X 55.9551 Y 58.6193 Z -0.1100
G01 X 57.4629 Y 58.6193 Z -0.1100
G03 X 57.9221 Y 58.6863 Z -0.1100 I -0.0000 J 1.6086
G03 X 58.1973 Y 58.8381 Z -0.1100 I -0.2106 J 0.7069
G03 X 58.3763 Y 59.0890 Z -0.1100 I -0.4406 J 0.5035
G03 X 58.4473 Y 59.4514 Z -0.1100 I -0.8888 J 0.3623
G01 X 58.4473 Y 59.4514 Z -0.1100
G00 Z 4.9000

(End cutting path id: path48966)


(Start cutting path id: path48968)
(Change tool to Cone cutter)

G00 Z 4.9000
G00 X 61.7324 Y 60.2482

G01 Z -0.1100 F 100.0000(Penetrate)
G01 X 61.7324 Y 58.5451 Z -0.1100 F 400.0000
G01 X 64.5488 Y 58.5451 Z -0.1100
G01 X 64.5488 Y 57.6545 Z -0.1100
G01 X 61.7324 Y 57.6545 Z -0.1100
G01 X 61.7324 Y 55.6350 Z -0.1100
G01 X 60.5801 Y 55.6350 Z -0.1100
G01 X 60.5801 Y 61.1389 Z -0.1100
G01 X 64.6387 Y 61.1389 Z -0.1100
G01 X 64.6387 Y 60.2482 Z -0.1100
G01 X 61.7324 Y 60.2482 Z -0.1100
G00 Z 4.9000

(End cutting path id: path48968)


(Start cutting path id: path48970)
(Change tool to Cone cutter)

G00 Z 4.9000
G00 X 65.2441 Y 57.2326

G01 Z -0.1100 F 100.0000(Penetrate)
G01 X 65.2441 Y 58.1857 Z -0.1100 F 400.0000
G01 X 67.2754 Y 58.1857 Z -0.1100
G01 X 67.2754 Y 57.2326 Z -0.1100
G01 X 65.2441 Y 57.2326 Z -0.1100
G00 Z 4.9000

(End cutting path id: path48970)


(Start cutting path id: path48972)
(Change tool to Cone cutter)

G00 Z 4.9000
G00 X 71.7559 Y 57.1623

G01 Z -0.1100 F 100.0000(Penetrate)
G02 X 71.6121 Y 56.4563 Z -0.1100 I -1.8055 J 0.0000 F 400.0000
G02 X 71.2480 Y 55.9670 Z -0.1100 I -1.1909 J 0.5059
G02 X 70.6942 Y 55.6726 Z -0.1100 I -0.9863 J 1.1873
G02 X 69.8027 Y 55.5451 Z -0.1100 I -0.8915 J 3.0541
G02 X 68.9569 Y 55.6645 Z -0.1100 I 0.0000 J 3.0554
G02 X 68.3926 Y 55.9514 Z -0.1100 I 0.4646 J 1.6125
G02 X 67.9940 Y 56.4316 Z -0.1100 I 0.9089 J 1.1599
G02 X 67.7793 Y 57.1310 Z -0.1100 I 1.7974 J 0.9344
G01 X 68.8965 Y 57.2287 Z -0.1100
G03 X 69.1997 Y 56.6616 Z -0.1100 I 0.9077 J 0.1207
G03 X 69.7988 Y 56.4357 Z -0.1100 I 0.5991 J 0.6817
G03 X 70.1713 Y 56.4936 Z -0.1100 I -0.0000 J 1.2274
G03 X 70.4121 Y 56.6310 Z -0.1100 I -0.2016 J 0.6329
G03 X 70.5648 Y 56.8559 Z -0.1100 I -0.3724 J 0.4171
G03 X 70.6309 Y 57.2287 Z -0.1100 I -1.0184 J 0.3728
G03 X 70.5569 Y 57.5585 Z -0.1100 I -0.7723 J -0.0000
G03 X 70.3652 Y 57.7912 Z -0.1100 I -0.5558 J -0.2625
G03 X 70.0795 Y 57.9252 Z -0.1100 I -0.4807 J -0.6538
G03 X 69.5762 Y 57.9865 Z -0.1100 I -0.5033 J -2.0334
G01 X 69.1934 Y 57.9865 Z -0.1100
G01 X 69.1934 Y 58.8732 Z -0.1100
G01 X 69.5527 Y 58.8732 Z -0.1100
G03 X 70.0044 Y 58.9330 Z -0.1100 I 0.0000 J 1.7372
G03 X 70.2637 Y 59.0646 Z -0.1100 I -0.1840 J 0.6836
G03 X 70.4346 Y 59.2918 Z -0.1100 I -0.3803 J 0.4640
G03 X 70.5020 Y 59.6193 Z -0.1100 I -0.7624 J 0.3275
G03 X 70.4466 Y 59.9362 Z -0.1100 I -0.9350 J -0.0000
G03 X 70.3105 Y 60.1506 Z -0.1100 I -0.5477 J -0.1973
G03 X 70.0982 Y 60.2877 Z -0.1100 I -0.3956 J -0.3798
G03 X 69.7598 Y 60.3459 Z -0.1100 I -0.3385 J -0.9545
G03 X 69.4400 Y 60.2930 Z -0.1100 I 0.0000 J -0.9921
G03 X 69.2090 Y 60.1584 Z -0.1100 I 0.2177 J -0.6394
G03 X 69.0539 Y 59.9450 Z -0.1100 I 0.4316 J -0.4766
G03 X 68.9707 Y 59.6271 Z -0.1100 I 0.9099 J -0.4081
G01 X 67.8730 Y 59.7053 Z -0.1100
G02 X 68.0755 Y 60.3512 Z -0.1100 I 1.8419 J -0.2226
G02 X 68.4629 Y 60.8185 Z -0.1100 I 1.3181 J -0.6984
G02 X 69.0072 Y 61.1055 Z -0.1100 I 1.0240 J -1.2825
G02 X 69.7793 Y 61.2209 Z -0.1100 I 0.7721 J -2.5262
G02 X 70.6014 Y 61.1042 Z -0.1100 I 0.0000 J -2.9529
G02 X 71.1270 Y 60.8303 Z -0.1100 I -0.4188 J -1.4450
G02 X 71.4804 Y 60.3784 Z -0.1100 I -0.7581 J -0.9572
G02 X 71.6152 Y 59.7560 Z -0.1100 I -1.3691 J -0.6223
G02 X 71.5311 Y 59.2732 Z -0.1100 I -1.4275 J 0.0000
G02 X 71.3105 Y 58.9084 Z -0.1100 I -1.0161 J 0.3652
G02 X 70.9695 Y 58.6481 Z -0.1100 I -0.8744 J 0.7921
G02 X 70.4395 Y 58.4670 Z -0.1100 I -0.9086 J 1.7931
G01 X 70.4395 Y 58.4514 Z -0.1100
G02 X 71.0313 Y 58.2931 Z -0.1100 I -0.2477 J -2.1119
G02 X 71.4121 Y 58.0334 Z -0.1100 I -0.4753 J -1.1062
G02 X 71.6623 Y 57.6545 Z -0.1100 I -0.7743 J -0.7832
G02 X 71.7559 Y 57.1623 Z -0.1100 I -1.2472 J -0.4922
G01 X 71.7559 Y 57.1623 Z -0.1100
G00 Z 4.9000

(End cutting path id: path48972)


(Start cutting path id: path48974)
(Change tool to Cone cutter)

G00 Z 4.9000
G00 X 75.7168 Y 56.7560

G01 Z -0.1100 F 100.0000(Penetrate)
G01 X 75.7168 Y 55.6350 Z -0.1100 F 400.0000
G01 X 74.6699 Y 55.6350 Z -0.1100
G01 X 74.6699 Y 56.7560 Z -0.1100
G01 X 72.1660 Y 56.7560 Z -0.1100
G01 X 72.1660 Y 57.5803 Z -0.1100
G01 X 74.4902 Y 61.1389 Z -0.1100
G01 X 75.7168 Y 61.1389 Z -0.1100
G01 X 75.7168 Y 57.5725 Z -0.1100
G01 X 76.4512 Y 57.5725 Z -0.1100
G01 X 76.4512 Y 56.7560 Z -0.1100
G01 X 75.7168 Y 56.7560 Z -0.1100
G00 Z 4.9000

(Change tool to Cone cutter)

G00 Z 4.9000
G00 X 74.6699 Y 59.3732

G01 Z -0.1100 F 100.0000(Penetrate)
G02 X 74.6726 Y 59.5841 Z -0.1100 I 8.2259 J 0.0000 F 400.0000
G02 X 74.6816 Y 59.8303 Z -0.1100 I 11.2185 J -0.2877
G02 X 74.6986 Y 60.0762 Z -0.1100 I 23.3911 J -1.4856
G02 X 74.7051 Y 60.1467 Z -0.1100 I 1.9233 J -0.1425
G02 X 74.5939 Y 59.9332 Z -0.1100 I -2.3971 J 1.1129
G02 X 74.3379 Y 59.5139 Z -0.1100 I -9.5257 J 5.5273
G01 X 73.0606 Y 57.5725 Z -0.1100
G01 X 74.6699 Y 57.5725 Z -0.1100
G01 X 74.6699 Y 59.3732 Z -0.1100
G00 Z 4.9000

(End cutting path id: path48974)


(Start cutting path id: path48976)
(Change tool to Cone cutter)

G00 Z 4.9000
G00 X 76.8066 Y 57.2326

G01 Z -0.1100 F 100.0000(Penetrate)
G01 X 76.8066 Y 58.1857 Z -0.1100 F 400.0000
G01 X 78.8379 Y 58.1857 Z -0.1100
G01 X 78.8379 Y 57.2326 Z -0.1100
G01 X 76.8066 Y 57.2326 Z -0.1100
G00 Z 4.9000

(End cutting path id: path48976)


(Start cutting path id: path48978)
(Change tool to Cone cutter)

G00 Z 4.9000
G00 X 82.8301 Y 56.7560

G01 Z -0.1100 F 100.0000(Penetrate)
G01 X 82.8301 Y 55.6350 Z -0.1100 F 400.0000
G01 X 81.7832 Y 55.6350 Z -0.1100
G01 X 81.7832 Y 56.7560 Z -0.1100
G01 X 79.2793 Y 56.7560 Z -0.1100
G01 X 79.2793 Y 57.5803 Z -0.1100
G01 X 81.6035 Y 61.1389 Z -0.1100
G01 X 82.8301 Y 61.1389 Z -0.1100
G01 X 82.8301 Y 57.5725 Z -0.1100
G01 X 83.5645 Y 57.5725 Z -0.1100
G01 X 83.5645 Y 56.7560 Z -0.1100
G01 X 82.8301 Y 56.7560 Z -0.1100
G00 Z 4.9000

(Change tool to Cone cutter)

G00 Z 4.9000
G00 X 81.7832 Y 59.3732

G01 Z -0.1100 F 100.0000(Penetrate)
G02 X 81.7859 Y 59.5841 Z -0.1100 I 8.2259 J 0.0000 F 400.0000
G02 X 81.7949 Y 59.8303 Z -0.1100 I 11.2185 J -0.2877
G02 X 81.8118 Y 60.0762 Z -0.1100 I 23.3911 J -1.4856
G02 X 81.8184 Y 60.1467 Z -0.1100 I 1.9233 J -0.1425
G02 X 81.7072 Y 59.9332 Z -0.1100 I -2.3971 J 1.1129
G02 X 81.4512 Y 59.5139 Z -0.1100 I -9.5257 J 5.5273
G01 X 80.1738 Y 57.5725 Z -0.1100
G01 X 81.7832 Y 57.5725 Z -0.1100
G01 X 81.7832 Y 59.3732 Z -0.1100
G00 Z 4.9000

(End cutting path id: path48978)


(Start cutting path id: path48980)
(Change tool to Cone cutter)

G00 Z 4.9000
G00 X 87.2793 Y 56.7560

G01 Z -0.1100 F 100.0000(Penetrate)
G01 X 87.2793 Y 55.6350 Z -0.1100 F 400.0000
G01 X 86.2324 Y 55.6350 Z -0.1100
G01 X 86.2324 Y 56.7560 Z -0.1100
G01 X 83.7285 Y 56.7560 Z -0.1100
G01 X 83.7285 Y 57.5803 Z -0.1100
G01 X 86.0527 Y 61.1389 Z -0.1100
G01 X 87.2793 Y 61.1389 Z -0.1100
G01 X 87.2793 Y 57.5725 Z -0.1100
G01 X 88.0137 Y 57.5725 Z -0.1100
G01 X 88.0137 Y 56.7560 Z -0.1100
G01 X 87.2793 Y 56.7560 Z -0.1100
G00 Z 4.9000

(Change tool to Cone cutter)

G00 Z 4.9000
G00 X 86.2324 Y 59.3732

G01 Z -0.1100 F 100.0000(Penetrate)
G02 X 86.2351 Y 59.5841 Z -0.1100 I 8.2259 J 0.0000 F 400.0000
G02 X 86.2441 Y 59.8303 Z -0.1100 I 11.2185 J -0.2877
G02 X 86.2611 Y 60.0762 Z -0.1100 I 23.3911 J -1.4856
G02 X 86.2676 Y 60.1467 Z -0.1100 I 1.9233 J -0.1425
G02 X 86.1564 Y 59.9332 Z -0.1100 I -2.3971 J 1.1129
G02 X 85.9004 Y 59.5139 Z -0.1100 I -9.5257 J 5.5273
G01 X 84.6231 Y 57.5725 Z -0.1100
G01 X 86.2324 Y 57.5725 Z -0.1100
G01 X 86.2324 Y 59.3732 Z -0.1100
G00 Z 4.9000

(End cutting path id: path48980)


(Start cutting path id: path48982)
(Change tool to Cone cutter)

G00 Z 4.9000
G00 X 92.1777 Y 58.3889

G01 Z -0.1100 F 100.0000(Penetrate)
G02 X 92.0264 Y 57.0403 Z -0.1100 I -6.0830 J 0.0000 F 400.0000
G02 X 91.6973 Y 56.2756 Z -0.1100 I -2.2322 J 0.5075
G02 X 91.1128 Y 55.7578 Z -0.1100 I -1.2643 J 0.8383
G02 X 90.2637 Y 55.5568 Z -0.1100 I -0.8492 J 1.6937
G02 X 89.0318 Y 56.2156 Z -0.1100 I 0.0000 J 1.4811
G02 X 88.3730 Y 58.3889 Z -0.1100 I 3.2554 J 2.1733
G02 X 88.4356 Y 59.3671 Z -0.1100 I 7.6851 J 0.0000
G02 X 88.5801 Y 60.0021 Z -0.1100 I 3.3656 J -0.4319
G02 X 88.8604 Y 60.5732 Z -0.1100 I 2.2189 J -0.7350
G02 X 89.2012 Y 60.9240 Z -0.1100 I 1.1457 J -0.7719
G02 X 89.6432 Y 61.1340 Z -0.1100 I 0.8030 J -1.1199
G02 X 90.2949 Y 61.2209 Z -0.1100 I 0.6518 J -2.4012
G02 X 91.1608 Y 61.0185 Z -0.1100 I 0.0000 J -1.9533
G02 X 91.7246 Y 60.5139 Z -0.1100 I -0.6270 J -1.2678
G02 X 92.0327 Y 59.7643 Z -0.1100 I -1.9063 J -1.2217
G02 X 92.1777 Y 58.3889 Z -0.1100 I -6.4506 J -1.3755
G01 X 92.1777 Y 58.3889 Z -0.1100
G00 Z 4.9000

(Change tool to Cone cutter)

G00 Z 4.9000
G00 X 91.0762 Y 58.3889

G01 Z -0.1100 F 100.0000(Penetrate)
G03 X 91.0524 Y 59.1485 Z -0.1100 I -12.1379 J -0.0000 F 400.0000
G03 X 91.0020 Y 59.5725 Z -0.1100 I -3.8228 J -0.2397
G03 X 90.8885 Y 59.9753 Z -0.1100 I -2.0563 J -0.3618
G03 X 90.7637 Y 60.1779 Z -0.1100 I -0.6283 J -0.2473
G03 X 90.5756 Y 60.3079 Z -0.1100 I -0.3631 J -0.3245
G03 X 90.2871 Y 60.3615 Z -0.1100 I -0.2885 J -0.7489
G03 X 89.9794 Y 60.3061 Z -0.1100 I 0.0000 J -0.8822
G03 X 89.7832 Y 60.1740 Z -0.1100 I 0.1762 J -0.4735
G03 X 89.6555 Y 59.9706 Z -0.1100 I 0.4943 J -0.4522
G03 X 89.5410 Y 59.5685 Z -0.1100 I 1.8842 J -0.7537
G03 X 89.4933 Y 59.1487 Z -0.1100 I 3.8916 J -0.6546
G03 X 89.4707 Y 58.3889 Z -0.1100 I 12.7487 J -0.7598
G03 X 89.4943 Y 57.6370 Z -0.1100 I 11.9741 J 0.0000
G03 X 89.5449 Y 57.2092 Z -0.1100 I 3.9196 J 0.2466
G03 X 89.6616 Y 56.8062 Z -0.1100 I 2.0932 J 0.3877
G03 X 89.7871 Y 56.6037 Z -0.1100 I 0.6375 J 0.2550
G03 X 89.9787 Y 56.4737 Z -0.1100 I 0.3687 J 0.3373
G03 X 90.2715 Y 56.4201 Z -0.1100 I 0.2928 J 0.7725
G03 X 90.5590 Y 56.4753 Z -0.1100 I 0.0000 J 0.7769
G03 X 90.7520 Y 56.6115 Z -0.1100 I -0.1872 J 0.4698
G03 X 90.8834 Y 56.8262 Z -0.1100 I -0.5515 J 0.4853
G03 X 90.9981 Y 57.2326 Z -0.1100 I -1.9214 J 0.7613
G03 X 91.0516 Y 57.6606 Z -0.1100 I -3.7234 J 0.6832
G03 X 91.0762 Y 58.3889 Z -0.1100 I -10.7772 J 0.7282
G01 X 91.0762 Y 58.3889 Z -0.1100
G00 Z 4.9000

(End cutting path id: path48982)


(Start cutting path id: path48984)
(Change tool to Cone cutter)

G00 Z 4.9000
G00 X 96.6270 Y 58.3889

G01 Z -0.1100 F 100.0000(Penetrate)
G02 X 96.4756 Y 57.0403 Z -0.1100 I -6.0830 J -0.0000 F 400.0000
G02 X 96.1465 Y 56.2756 Z -0.1100 I -2.2322 J 0.5075
G02 X 95.5621 Y 55.7578 Z -0.1100 I -1.2643 J 0.8383
G02 X 94.7129 Y 55.5568 Z -0.1100 I -0.8492 J 1.6937
G02 X 93.4810 Y 56.2156 Z -0.1100 I 0.0000 J 1.4811
G02 X 92.8223 Y 58.3889 Z -0.1100 I 3.2554 J 2.1733
G02 X 92.8848 Y 59.3671 Z -0.1100 I 7.6851 J -0.0000
G02 X 93.0293 Y 60.0021 Z -0.1100 I 3.3656 J -0.4319
G02 X 93.3097 Y 60.5732 Z -0.1100 I 2.2189 J -0.7350
G02 X 93.6504 Y 60.9240 Z -0.1100 I 1.1457 J -0.7719
G02 X 94.0924 Y 61.1340 Z -0.1100 I 0.8030 J -1.1199
G02 X 94.7441 Y 61.2209 Z -0.1100 I 0.6518 J -2.4012
G02 X 95.6100 Y 61.0185 Z -0.1100 I -0.0000 J -1.9533
G02 X 96.1738 Y 60.5139 Z -0.1100 I -0.6270 J -1.2678
G02 X 96.4819 Y 59.7643 Z -0.1100 I -1.9063 J -1.2217
G02 X 96.6270 Y 58.3889 Z -0.1100 I -6.4506 J -1.3755
G01 X 96.6270 Y 58.3889 Z -0.1100
G00 Z 4.9000

(Change tool to Cone cutter)

G00 Z 4.9000
G00 X 95.5254 Y 58.3889

G01 Z -0.1100 F 100.0000(Penetrate)
G03 X 95.5016 Y 59.1485 Z -0.1100 I -12.1379 J -0.0000 F 400.0000
G03 X 95.4512 Y 59.5725 Z -0.1100 I -3.8228 J -0.2397
G03 X 95.3377 Y 59.9753 Z -0.1100 I -2.0563 J -0.3618
G03 X 95.2129 Y 60.1779 Z -0.1100 I -0.6283 J -0.2473
G03 X 95.0248 Y 60.3079 Z -0.1100 I -0.3631 J -0.3245
G03 X 94.7363 Y 60.3615 Z -0.1100 I -0.2885 J -0.7489
G03 X 94.4287 Y 60.3061 Z -0.1100 I 0.0000 J -0.8822
G03 X 94.2324 Y 60.1740 Z -0.1100 I 0.1762 J -0.4735
G03 X 94.1047 Y 59.9706 Z -0.1100 I 0.4943 J -0.4522
G03 X 93.9902 Y 59.5685 Z -0.1100 I 1.8842 J -0.7537
G03 X 93.9425 Y 59.1487 Z -0.1100 I 3.8916 J -0.6546
G03 X 93.9199 Y 58.3889 Z -0.1100 I 12.7487 J -0.7598
G03 X 93.9436 Y 57.6370 Z -0.1100 I 11.9741 J 0.0000
G03 X 93.9941 Y 57.2092 Z -0.1100 I 3.9196 J 0.2466
G03 X 94.1108 Y 56.8062 Z -0.1100 I 2.0932 J 0.3877
G03 X 94.2363 Y 56.6037 Z -0.1100 I 0.6375 J 0.2550
G03 X 94.4279 Y 56.4737 Z -0.1100 I 0.3687 J 0.3373
G03 X 94.7207 Y 56.4201 Z -0.1100 I 0.2928 J 0.7725
G03 X 95.0082 Y 56.4753 Z -0.1100 I 0.0000 J 0.7769
G03 X 95.2012 Y 56.6115 Z -0.1100 I -0.1872 J 0.4698
G03 X 95.3326 Y 56.8262 Z -0.1100 I -0.5515 J 0.4853
G03 X 95.4473 Y 57.2326 Z -0.1100 I -1.9214 J 0.7613
G03 X 95.5008 Y 57.6606 Z -0.1100 I -3.7234 J 0.6832
G03 X 95.5254 Y 58.3889 Z -0.1100 I -10.7772 J 0.7282
G01 X 95.5254 Y 58.3889 Z -0.1100
G00 Z 4.9000

(End cutting path id: path48984)


(Start cutting path id: path48964)
(Change tool to Cone cutter)

G00 Z 4.9000
G00 X 51.1934 Y 56.4592

G01 Z -0.1100 F 100.0000(Penetrate)
G03 X 51.6377 Y 56.4919 Z -0.1100 I -0.0000 J 3.0353 F 400.0000
G03 X 52.0645 Y 56.5881 Z -0.1100 I -0.4284 J 2.8949
G03 X 52.4677 Y 56.7540 Z -0.1100 I -0.7686 J 2.4413
G03 X 52.7168 Y 56.9240 Z -0.1100 I -0.5608 J 1.0890
G01 X 52.7168 Y 57.6857 Z -0.1100
G01 X 51.3730 Y 57.6857 Z -0.1100
G01 X 51.3730 Y 58.5373 Z -0.1100
G01 X 53.7715 Y 58.5373 Z -0.1100
G01 X 53.7715 Y 56.5139 Z -0.1100
G02 X 53.2920 Y 56.1297 Z -0.1100 I -1.7922 J 1.7455
G02 X 52.6309 Y 55.8107 Z -0.1100 I -1.8744 J 3.0407
G02 X 51.9202 Y 55.6219 Z -0.1100 I -1.4187 J 3.9069
G02 X 51.1621 Y 55.5568 Z -0.1100 I -0.7581 J 4.3853
G02 X 49.9104 Y 55.7748 Z -0.1100 I -0.0000 J 3.7031
G02 X 49.0957 Y 56.2990 Z -0.1100 I 0.7276 J 2.0259
G02 X 48.5860 Y 57.1313 Z -0.1100 I 1.6064 J 1.5559
G02 X 48.3730 Y 58.4123 Z -0.1100 I 3.7459 J 1.2810
G02 X 48.5883 Y 59.6822 Z -0.1100 I 3.8542 J -0.0000
G02 X 49.0996 Y 60.4943 Z -0.1100 I 2.0204 J -0.7050
G02 X 49.9153 Y 61.0057 Z -0.1100 I 1.5230 J -1.5230
G02 X 51.1895 Y 61.2209 Z -0.1100 I 1.2742 J -3.6649
G02 X 52.8202 Y 60.7811 Z -0.1100 I -0.0000 J -3.2435
G02 X 53.6543 Y 59.7873 Z -0.1100 I -0.9624 J -1.6547
G01 X 52.5918 Y 59.4670 Z -0.1100
G03 X 52.3656 Y 59.8377 Z -0.1100 I -1.2786 J -0.5258
G03 X 52.0527 Y 60.0998 Z -0.1100 I -0.9295 J -0.7918
G03 X 51.6696 Y 60.2558 Z -0.1100 I -0.7343 J -1.2549
G03 X 51.1895 Y 60.3146 Z -0.1100 I -0.4801 J -1.9293
G03 X 50.4429 Y 60.1713 Z -0.1100 I -0.0000 J -2.0157
G03 X 49.9551 Y 59.8225 Z -0.1100 I 0.4646 J -1.1652
G03 X 49.6607 Y 59.2831 Z -0.1100 I 1.1245 J -0.9638
G03 X 49.5332 Y 58.4123 Z -0.1100 I 2.9108 J -0.8708
G03 X 49.6632 Y 57.5264 Z -0.1100 I 3.0831 J 0.0000
G03 X 49.9668 Y 56.9670 Z -0.1100 I 1.4920 J 0.4476
G03 X 50.4702 Y 56.6030 Z -0.1100 I 1.0168 J 0.8760
G03 X 51.1934 Y 56.4592 Z -0.1100 I 0.7232 J 1.7467
G01 X 51.1934 Y 56.4592 Z -0.1100
G00 Z 4.9000

(End cutting path id: path48964)


(Start cutting path id: path1647-3-6-7)
(Change tool to Cone cutter)

G00 Z 4.9000
G00 X 27.3105 Y 35.9080

G01 Z -0.1100 F 100.0000(Penetrate)
G01 X 27.3105 Y 31.2799 Z -0.1100 F 400.0000
G00 Z 4.9000

(End cutting path id: path1647-3-6-7)


(Start cutting path id: path952)
(Change tool to Cone cutter)

G00 Z 4.9000
G00 X 27.4751 Y 30.4002

G01 Z -0.1100 F 100.0000(Penetrate)
G02 X 24.9549 Y 31.3077 Z -0.1100 I -0.1646 J 3.4961 F 400.0000
G02 X 23.8144 Y 33.7314 Z -0.1100 I 2.3556 J 2.5886
G02 X 24.7217 Y 36.2517 Z -0.1100 I 3.4961 J 0.1649
G02 X 27.1453 Y 37.3924 Z -0.1100 I 2.5888 J -2.3554
G02 X 29.6657 Y 36.4853 Z -0.1100 I 0.1652 J -3.4961
G02 X 30.8066 Y 34.0618 Z -0.1100 I -2.3552 J -2.5890
G02 X 29.8998 Y 31.5414 Z -0.1100 I -3.4961 J -0.1655
G02 X 27.4764 Y 30.4002 Z -0.1100 I -2.5892 J 2.3549
G01 X 27.3105 Y 33.8963 Z -0.1100
G01 X 27.4751 Y 30.4002 Z -0.1100
G00 Z 4.9000

(End cutting path id: path952)


(Start cutting path id: path3315-5)
(Change tool to Cone cutter)

G00 Z 4.9000
G00 X 25.1615 Y 33.8963

G01 Z -0.1100 F 100.0000(Penetrate)
G01 X 29.6860 Y 33.8963 Z -0.1100 F 400.0000
G00 Z 4.9000

(End cutting path id: path3315-5)



(Footer)
M5
G00 X0.0000 Y0.0000
M2
(Using default footer. To add your own footer create file "footer" in the output dir.)
(end)
%